Resetting simulator
Start State: [ Pos=1 | Car=mazda | Driver=stig | Tire=ALL_TERRAIN | Pressure=100% | Fuel=50 ]

A4:performance: 43 5.231447914971895
A4:mud: 54 6.81065949041716
A4:low-profile: 68 8.103719368745184
A7:toyota:schumacher: 39 4.590192778121731
A7:go-kart:schumacher: 37 4.09066399730547
A2:humvee: 38 4.201698334392971
A7:ferarri:anakin: 39 4.510657798621395
A7:humvee:schumacher: 43 5.317222052179442
A2:go-kart: 43 5.34296355297292
A3:mushroom: 46 5.770738750055558
A7:toyota:anakin: 32 3.0745916682052736
A7:ferarri:schumacher: 40 4.6936609290765645
A3:schumacher: 47 5.883210066311804
A3:anakin: 37 4.084896774365805
A3:crash: 39 4.519981909536462
A7:humvee:crash: 35 3.5850914889182355
A6:75%: 36 3.9461785265588643
A2:ferarri: 44 5.307857098040837
A1: 39 4.482266206985268
A7:go-kart:anakin: 35 3.7695163223035055
A2:toyota: 34 3.5068274154651218
A6:50%: 36 3.9205041476003055
904
A4:low-profile
Step 0: performing A4
	Next State: [ Pos=1 | Car=mazda | Driver=stig | Tire=LOW_PROFILE | Pressure=100% | Fuel=50 ]

A6:75%: 64 8.056244153976213
A4:performance: 42 5.137964837073005
A7:toyota:crash: 60 7.6045717134636375
A7:ferarri:schumacher: 101 10.449528118446068
A3:anakin: 65 8.005483215245304
A2:ferarri: 80 9.19407758957929
A7:toyota:anakin: 56 7.0788214353115295
A7:ferarri:anakin: 61 7.759773127093438
A3:crash: 77 9.069017460359676
A4:mud: 50 6.351888985869091
A3:mushroom: 96 10.25754233549718
A6:50%: 58 7.388413728077456
A7:ferarri:crash: 120 11.23247407949105
A1: 73 8.814282372605563
A4:all-terrain: 38 4.57996200263864
A7:toyota:schumacher: 59 7.51034976307124
A3:schumacher: 87 9.641750870652775
A2:toyota: 43 5.491316060488421
1230
A7:ferarri:crash
Step 1: performing A7
	Next State: [ Pos=1 | Car=ferarri | Driver=crash | Tire=LOW_PROFILE | Pressure=100% | Fuel=50 ]

A7:toyota:mushroom: 38 8.14924199706015
A4:mud: 63 11.64347282113671
A7:mazda:anakin: 38 8.145357302457052
A4:performance: 64 11.679958139078323
A2:toyota: 40 8.580126482850435
A6:75%: 65 11.68904501921423
A7:toyota:stig: 28 5.6145305464769555
A7:humvee:anakin: 55 10.605093841257796
A2:humvee: 69 12.010798149184657
A1: 46 9.302077585037292
A7:humvee:stig: 77 12.779796713574063
A7:toyota:anakin: 36 7.574734569287417
A7:toyota:schumacher: 30 6.103483833943062
A3:stig: 57 10.853640483547132
A2:go-kart: 49 9.983763345915351
A4:all-terrain: 37 7.66477267815843
A7:mazda:schumacher: 50 9.944424169363984
A7:go-kart:anakin: 65 11.826101468061713
A7:go-kart:stig: 79 12.928357173123645
A3:mushroom: 39 8.156398061691007
A6:50%: 56 10.883990697451432
A7:mazda:stig: 27 5.1232547136381035
A3:anakin: 38 7.863574171945546
A7:humvee:schumacher: 64 11.611480940385588
A7:mazda:mushroom: 75 12.565069325701279
A2:mazda: 47 9.734840113015773
A3:schumacher: 49 9.829498723199041
1381
A7:go-kart:stig
Step 2: performing A7
	Next State: [ Pos=1 | Car=go-kart | Driver=stig | Tire=LOW_PROFILE | Pressure=100% | Fuel=50 ]

A4:mud: 66 12.417910823930383
A4:performance: 55 11.37927106240836
A6:75%: 47 10.223175160483404
A7:humvee:mushroom: 58 11.752256149241607
A7:mazda:mushroom: 49 10.652069547129608
A2:ferarri: 45 9.883599673426529
A1: 67 12.582743537011103
A2:toyota: 32 7.323743696476885
A4:all-terrain: 22 3.9202315965695105
A7:ferarri:schumacher: 52 11.006474152713983
A7:mazda:anakin: 31 7.093398807300421
A7:mazda:crash: 37 8.346918564709602
A7:ferarri:anakin: 43 9.66115844203473
A2:humvee: 51 10.679694102099628
A6:50%: 79 13.456949793634035
A7:mazda:schumacher: 34 7.926213913285489
A7:ferarri:crash: 49 10.628910165714192
A7:toyota:schumacher: 31 7.065567734532941
A3:anakin: 77 13.403536756826004
A7:toyota:anakin: 31 6.93799100831163
A3:crash: 71 12.895764107967581
A7:humvee:anakin: 42 9.522989240180781
A7:toyota:crash: 30 6.602891033055814
A7:humvee:crash: 56 11.491268855138696
A7:toyota:mushroom: 67 12.430258428531232
A2:mazda: 26 5.504890798458062
A3:schumacher: 51 10.950893310314619
A3:mushroom: 55 11.173221022215989
A7:ferarri:mushroom: 38 8.818308320999728
A7:humvee:schumacher: 49 10.454434661546216
1441
A6:50%
Step 3: performing A6
	Next State: [ Pos=1 | Car=go-kart | Driver=stig | Tire=LOW_PROFILE | Pressure=50% | Fuel=50 ]

A7:toyota:crash: 38 8.522199055081057
A2:toyota: 24 4.815872287561491
A3:crash: 64 12.299624363001485
A7:humvee:anakin: 65 12.393998139693512
A7:mazda:anakin: 30 6.656096067592577
A7:mazda:crash: 36 8.240125902770146
A7:humvee:mushroom: 54 11.25950076135716
A3:schumacher: 59 11.834673151943404
A6:100%: 52 10.838238941370792
A7:humvee:crash: 53 11.056141925042391
A6:75%: 63 12.302383249708315
A7:toyota:schumacher: 34 7.8223920155345255
A7:ferarri:anakin: 44 9.86243786675814
A4:all-terrain: 24 4.4300526539891925
A2:ferarri: 38 8.769078357544918
A7:ferarri:mushroom: 41 9.107167235264834
A7:mazda:schumacher: 43 9.600046186930363
A3:mushroom: 62 12.111327223684865
A7:ferarri:schumacher: 44 9.796497850939618
A4:mud: 67 12.506486467748514
A2:humvee: 56 11.531542534262698
A7:toyota:anakin: 36 8.187029259310446
A3:anakin: 47 10.414366322741584
A7:toyota:mushroom: 56 11.541140146925896
A7:mazda:mushroom: 47 10.272862333461859
A7:ferarri:crash: 38 8.654474952572134
A7:humvee:schumacher: 46 10.168594451714112
A1: 94 14.428157736733382
A2:mazda: 42 9.334242435001979
A4:performance: 57 11.484800426073072
1454
A1
Step 4: performing A1
	Sampled move distance=3
	Next State: [ Pos=4 | Car=go-kart | Driver=stig | Tire=LOW_PROFILE | Pressure=50% | Fuel=47 ]

A2:humvee: 45 11.377069643656451
A7:ferarri:schumacher: 29 7.925639363821008
A3:crash: 44 11.134425328276226
A7:toyota:mushroom: 38 10.297106981807163
A7:humvee:anakin: 59 13.203103048585408
A7:humvee:mushroom: 62 13.557566820996493
A7:mazda:mushroom: 42 10.811882317787099
A7:mazda:schumacher: 35 9.485126491986644
A3:anakin: 51 12.213016890891515
A4:all-terrain: 21 4.321513329552262
A7:ferarri:mushroom: 40 10.518757979478675
A7:ferarri:crash: 40 10.462561247328203
A2:mazda: 31 8.36708788557571
A7:humvee:crash: 47 11.768028684943216
A5:3: 49 12.128794569550026
A7:ferarri:anakin: 39 10.283714141227582
A7:toyota:anakin: 33 8.91295861980951
A3:schumacher: 63 13.533552567290432
A4:mud: 64 13.58687654103565
A7:mazda:anakin: 33 8.978531021668987
A4:performance: 41 10.715373428957726
A7:humvee:schumacher: 46 11.702581674389396
A7:toyota:schumacher: 34 9.103084207319277
A3:mushroom: 51 12.2063463988088
A7:mazda:crash: 25 6.602928343943819
A7:toyota:crash: 32 8.64455122109481
A2:ferarri: 42 10.994284831672033
A1: 54 12.508666460511504
A6:100%: 58 13.135298200405218
A6:75%: 51 12.37073512034009
A2:toyota: 26 6.999790191848656
1325
A4:mud
Step 5: performing A4
	Next State: [ Pos=4 | Car=go-kart | Driver=stig | Tire=MUD | Pressure=100% | Fuel=47 ]

A3:schumacher: 46 11.804576820098488
A7:mazda:anakin: 20 4.433470301602215
A2:humvee: 69 14.366098583308966
A5:3: 78 14.97755393011169
A4:performance: 55 13.126801893583323
A6:50%: 46 11.938880887424311
A7:ferarri:mushroom: 67 14.162046998999294
A7:humvee:crash: 61 13.561444654557517
A4:low-profile: 41 10.87833484997909
A7:toyota:mushroom: 43 11.420782226259853
A7:toyota:schumacher: 30 8.44276380112706
A6:75%: 59 13.401608880159559
A7:ferarri:schumacher: 42 11.139494088966083
A7:mazda:schumacher: 30 8.26673077220565
A7:toyota:crash: 59 13.430803661985877
A7:ferarri:crash: 45 11.787927892239699
A3:anakin: 61 13.666294009378234
A2:toyota: 19 3.890583350938969
A7:humvee:anakin: 49 12.22165538547879
A7:mazda:mushroom: 38 10.284867132482768
A2:ferarri: 33 8.932239660870417
A7:toyota:anakin: 25 6.87033155963132
A7:mazda:crash: 28 7.967538135582634
A3:crash: 63 13.745137286295332
A1: 70 14.450482517967535
A7:ferarri:anakin: 29 7.931788956344555
A3:mushroom: 63 13.844463350214658
A2:mazda: 22 5.6360931623707575
A7:humvee:mushroom: 61 13.78460815874962
A4:all-terrain: 20 4.547914846161742
A7:humvee:schumacher: 51 12.523274833455698
1423
A5:3
Step 6: performing A5
	Next State: [ Pos=4 | Car=go-kart | Driver=stig | Tire=MUD | Pressure=100% | Fuel=50 ]

A7:mazda:schumacher: 30 8.283461705519938
A7:humvee:mushroom: 47 11.881600529961114
A7:ferarri:schumacher: 37 10.068114119811797
A7:toyota:mushroom: 53 12.570167227037887
A2:humvee: 66 13.810030094083702
A7:mazda:crash: 38 10.164308574110027
A7:ferarri:crash: 55 12.86389596155165
A2:toyota: 18 3.1525183498216096
A3:schumacher: 46 11.722960151809723
A7:ferarri:mushroom: 53 12.449647981609452
A3:crash: 51 12.402065301629733
A6:50%: 83 15.278378988047038
A7:humvee:crash: 47 11.606622085079279
A7:ferarri:anakin: 24 6.0275029002415055
A7:humvee:schumacher: 72 14.517186275706637
A2:mazda: 24 6.146737687435336
A1: 67 14.020008823241223
A3:mushroom: 52 12.54277719046735
A4:low-profile: 59 13.191727467551496
A7:toyota:anakin: 25 6.675515254508506
A7:toyota:schumacher: 28 7.680446321791067
A7:toyota:crash: 58 13.141685025481344
A7:humvee:anakin: 44 11.517699629238145
A7:mazda:anakin: 25 6.469108643996086
A2:ferarri: 46 11.718368600223753
A3:anakin: 68 14.20319699723717
A7:mazda:mushroom: 43 11.096629557765853
A4:performance: 52 12.322994066177886
A6:75%: 58 13.038571078046672
A4:all-terrain: 21 4.769335934756985
1390
A6:50%
Step 7: performing A6
	Next State: [ Pos=4 | Car=go-kart | Driver=stig | Tire=MUD | Pressure=50% | Fuel=50 ]

A7:toyota:crash: 66 14.043029573705882
A7:toyota:schumacher: 33 9.224788951381754
A7:mazda:mushroom: 48 11.981129718305551
A7:ferarri:mushroom: 52 12.309750087397903
A3:mushroom: 68 14.241877798162554
A7:humvee:mushroom: 50 12.292815808556092
A1: 83 15.225969048096006
A4:all-terrain: 23 5.641879444054802
A3:crash: 60 13.520171549397093
A7:ferarri:crash: 70 14.43747715445485
A7:mazda:schumacher: 40 10.620859957742471
A7:ferarri:schumacher: 43 11.09029294599535
A2:mazda: 22 5.078734821240968
A6:100%: 59 13.42466685176135
A7:ferarri:anakin: 29 8.033909070060208
A7:humvee:crash: 49 12.189986839075784
A7:humvee:schumacher: 43 11.120201979425003
A3:schumacher: 54 12.77743915363916
A2:ferarri: 46 11.664547783399648
A2:humvee: 58 13.208200322554983
A6:75%: 55 12.818200961309921
A7:toyota:anakin: 27 7.352253717175482
A7:humvee:anakin: 53 12.675281894775404
A7:mazda:anakin: 26 6.716644587569846
A7:toyota:mushroom: 63 13.6361902510488
A3:anakin: 61 13.59476317861955
A2:toyota: 20 3.850894423121127
A4:performance: 54 12.584946619623198
A4:low-profile: 49 11.879752701761163
A7:mazda:crash: 31 8.605095988522997
1435
A1
Step 8: performing A1
	Sampled move distance=3
	Next State: [ Pos=7 | Car=go-kart | Driver=stig | Tire=MUD | Pressure=50% | Fuel=35 ]

A3:crash: 65 14.417446320445967
A3:schumacher: 54 13.489288544390677
A4:all-terrain: 18 3.6729014010689105
A6:75%: 22 5.716332537879797
A7:ferarri:crash: 45 12.078949242917242
A7:ferarri:schumacher: 39 10.932795574435357
A5:15: 63 14.388536585387172
A7:toyota:mushroom: 68 14.828166844988496
A7:toyota:crash: 55 13.370508671917746
A4:low-profile: 40 11.238619108981512
A6:100%: 70 15.070475083340995
A7:toyota:anakin: 23 6.124827563463377
A7:ferarri:mushroom: 50 12.96196917108506
A3:mushroom: 70 14.85393135928012
A1: 84 15.857417550797757
A2:ferarri: 44 11.964646394991327
A2:humvee: 60 14.10883324777588
A7:humvee:anakin: 60 14.068333079863322
A2:mazda: 19 4.118138575171489
A3:anakin: 63 14.322039645229205
A2:toyota: 18 3.3988695365364108
A7:ferarri:anakin: 32 9.46418249437967
A7:humvee:schumacher: 47 12.580815951707539
A7:mazda:anakin: 20 5.01521467373589
A7:humvee:crash: 64 14.49504434634124
A4:performance: 39 11.052131636635409
A7:mazda:crash: 37 10.763169158683999
A7:mazda:mushroom: 56 13.686650172268623
A7:mazda:schumacher: 28 8.42405207730361
A7:toyota:schumacher: 26 7.563631052885156
A7:humvee:mushroom: 53 13.182235076486567
1432
A1
Step 9: performing A1
	Sampled move distance=3
	Next State: [ Pos=10 | Car=go-kart | Driver=stig | Tire=MUD | Pressure=50% | Fuel=26 ]

A6:100%: 54 13.566009498703826
A7:ferarri:mushroom: 44 11.838155029648192
A3:mushroom: 68 14.907263031326242
A7:mazda:anakin: 29 8.547158407799168
A7:ferarri:schumacher: 43 11.762020386343734
A1: 104 17.180416315696895
A7:toyota:mushroom: 58 13.818122846075228
A7:humvee:crash: 62 14.323274278782149
A2:mazda: 27 7.796640832313618
A7:humvee:anakin: 56 13.851913505783207
A2:ferarri: 37 10.497922807302364
A2:toyota: 17 3.231858354403943
A7:toyota:schumacher: 21 5.371427301259283
A6:75%: 58 13.876972977639143
A4:low-profile: 45 12.333910296385852
A7:ferarri:crash: 48 12.823283501831922
A7:toyota:anakin: 26 7.733180735690228
A7:mazda:schumacher: 27 8.051791083671306
A7:ferarri:anakin: 36 10.576036810217948
A2:humvee: 52 13.275428444151563
A7:mazda:crash: 46 12.424885368644857
A3:schumacher: 66 14.82076786167795
A3:anakin: 76 15.576429238514567
A7:toyota:crash: 84 16.143332032960387
A7:mazda:mushroom: 69 14.967883025374384
A7:humvee:schumacher: 54 13.444677752673881
A4:all-terrain: 23 6.10615412022608
A7:humvee:mushroom: 53 13.518158535631665
A3:crash: 65 14.73821214180586
A5:24: 70 15.23856914989893
A4:performance: 34 9.979912709704735
1552
A1
Step 10: performing A1
	Sampled move distance=3
	Next State: [ Pos=13 | Car=go-kart | Driver=stig | Tire=MUD | Pressure=50% | Fuel=23 ]

A7:mazda:mushroom: 45 13.087993930381662
A7:humvee:mushroom: 49 13.634996392012983
A3:anakin: 64 15.370199603291981
A2:toyota: 17 4.062802782629217
A7:mazda:crash: 47 13.153112381260145
A4:performance: 52 14.015219878592717
A7:humvee:crash: 57 14.665958143234954
A3:crash: 59 14.954647130225975
A7:ferarri:mushroom: 57 14.6339373968506
A7:mazda:schumacher: 33 10.759718610969383
A7:ferarri:anakin: 33 10.445997482410018
A7:toyota:schumacher: 37 11.603246515331255
A2:ferarri: 62 15.178046385832255
A7:toyota:crash: 95 17.640005152684633
A1: 71 16.116868500882237
A2:humvee: 67 15.744953367208717
A7:humvee:schumacher: 51 13.950350447605256
A4:low-profile: 63 15.364032536780716
A7:mazda:anakin: 24 7.470434055338725
A3:mushroom: 87 17.131984658125916
A2:mazda: 23 7.423408892998504
A7:ferarri:schumacher: 47 13.201081287508353
A6:100%: 65 15.292103843238818
A7:humvee:anakin: 39 12.079776401893673
A5:27: 36 11.45841757060375
A4:all-terrain: 19 5.272635797898213
A6:75%: 76 16.34057122769135
A7:toyota:mushroom: 86 17.122852493617884
A3:schumacher: 78 16.586622941239302
A7:ferarri:crash: 64 15.382780890830377
A7:toyota:anakin: 25 8.192609836552839
1628
A7:toyota:crash
Step 11: performing A7
	Next State: [ Pos=13 | Car=toyota | Driver=crash | Tire=MUD | Pressure=100% | Fuel=50 ]

A4:all-terrain: 20 5.773256683682171
A4:performance: 68 15.558917401611703
A2:mazda: 31 10.007403706504759
A7:go-kart:stig: 46 12.896447802663486
A3:schumacher: 44 12.596804101059218
A7:humvee:anakin: 67 15.595744588648877
A7:mazda:anakin: 23 7.352482192567874
A3:stig: 21 6.081120818035822
A7:go-kart:schumacher: 64 15.32819261726914
A3:anakin: 25 7.696267353917392
A6:75%: 88 16.898388756534263
A2:ferarri: 60 14.692819316334171
A7:mazda:mushroom: 33 10.612378626896218
A6:50%: 73 15.922181791970214
A7:humvee:stig: 54 14.282885764224538
A3:mushroom: 58 14.560576293861606
A7:ferarri:schumacher: 33 10.551844394597289
A7:go-kart:mushroom: 93 17.265150738423845
A2:humvee: 53 14.176072572283433
A7:mazda:stig: 25 7.677613765345428
A7:ferarri:anakin: 35 10.874370399415108
A4:low-profile: 38 11.534515723583766
A7:humvee:schumacher: 57 14.469025110834338
A7:humvee:mushroom: 54 14.286644697046468
A2:go-kart: 88 16.989887942059905
A7:ferarri:mushroom: 72 15.889933301531462
A7:go-kart:anakin: 72 16.021218965566636
A7:ferarri:stig: 47 13.293649413839724
A1: 65 15.344001764755765
A7:mazda:schumacher: 44 12.49751781675041
1551
A7:go-kart:mushroom
Step 12: performing A7
	Next State: [ Pos=13 | Car=go-kart | Driver=mushroom | Tire=MUD | Pressure=100% | Fuel=50 ]

A7:humvee:stig: 97 17.50737701870172
A7:ferarri:crash: 66 15.41581534512166
A1: 105 17.858272276665378
A7:humvee:crash: 49 13.285619191665218
A7:ferarri:schumacher: 53 14.07880934293073
A7:mazda:crash: 28 9.126400758277603
A3:stig: 67 15.439822830725682
A7:humvee:anakin: 83 16.72948130105979
A4:low-profile: 51 13.860898899184848
A7:toyota:crash: 57 14.369048586059842
A3:crash: 55 14.32596192239847
A7:toyota:schumacher: 33 10.583418912151762
A7:ferarri:anakin: 42 12.41420459705721
A2:mazda: 37 11.30861032774352
A7:humvee:schumacher: 44 12.752119745713953
A7:toyota:stig: 18 4.05138162126417
A2:humvee: 67 15.479388221191455
A7:mazda:schumacher: 34 10.376815440814578
A3:schumacher: 77 16.203528098325975
A4:all-terrain: 26 7.855166805973614
A2:ferarri: 52 13.988401310597801
A7:toyota:anakin: 27 8.74189852132266
A7:ferarri:stig: 56 14.331992038774503
A7:mazda:stig: 23 7.2087434987462045
A3:anakin: 63 15.170611614447871
A4:performance: 53 13.831342626513386
A6:75%: 91 17.14138172810791
A2:toyota: 60 14.897978322291207
A6:50%: 51 13.710707452440834
A7:mazda:anakin: 32 10.21818205634959
1597
A1
Step 13: performing A1
	Sampled move distance=3
	Next State: [ Pos=16 | Car=go-kart | Driver=mushroom | Tire=MUD | Pressure=100% | Fuel=45 ]

A4:low-profile: 60 15.115298931031314
A7:humvee:anakin: 61 15.295042201313722
A7:mazda:stig: 32 10.38438267643753
A7:toyota:schumacher: 31 9.944724407605198
A2:toyota: 55 14.394144668931236
A7:ferarri:crash: 75 16.464286244710085
A4:all-terrain: 19 4.885675309312262
A7:mazda:anakin: 43 12.54611191431585
A7:ferarri:stig: 54 14.258944977706207
A4:performance: 69 16.03289134682589
A7:humvee:schumacher: 69 16.043731776482876
A1: 94 17.56714426186664
A7:toyota:crash: 79 16.59466285617358
A6:50%: 88 17.32027345867998
A3:stig: 79 16.722676520906933
A5:5: 78 16.693182020444826
A2:ferarri: 41 12.166433375578041
A7:humvee:stig: 57 14.804345643321374
A7:humvee:crash: 80 16.77161543338386
A7:toyota:stig: 15 2.6595941464678603
A7:toyota:anakin: 27 9.057346650904899
A7:ferarri:schumacher: 84 17.05418927413221
A3:anakin: 67 15.691649494538755
A7:mazda:crash: 39 12.144670080358626
A3:schumacher: 85 17.1377640286381
A6:75%: 80 16.69660794505193
A7:mazda:schumacher: 22 6.970344717911562
A2:mazda: 51 13.824171482409167
A3:crash: 90 17.289372146213363
A2:humvee: 64 15.59750888417017
A7:ferarri:anakin: 38 11.784755311222128
1826
A1
Step 14: performing A1
	Sampled move distance=3
	Next State: [ Pos=19 | Car=go-kart | Driver=mushroom | Tire=MUD | Pressure=100% | Fuel=44 ]

A2:ferarri: 74 18.63452776667922
A3:schumacher: 113 20.78832525461886
A7:humvee:anakin: 46 15.58193023544398
A3:crash: 52 16.0762346918304
A4:all-terrain: 20 7.442548314065658
A4:performance: 72 18.372797702542755
A3:stig: 99 20.039113052507787
A3:anakin: 81 18.96961218911296
A7:ferarri:anakin: 25 10.429859997751656
A7:humvee:stig: 68 18.045420453980014
A2:humvee: 97 20.242392911527514
A7:humvee:schumacher: 73 18.490143699691597
A7:mazda:anakin: 29 11.347414962845933
A2:toyota: 89 19.538889018107916
A5:6: 86 19.414307559197685
A7:toyota:anakin: 26 10.628702186591243
A7:mazda:schumacher: 31 11.85997160236655
A7:mazda:crash: 31 12.373266346746712
A7:ferarri:schumacher: 97 19.94834555550471
A7:humvee:crash: 57 16.910473072792442
A7:ferarri:stig: 66 17.74465244177495
A7:ferarri:crash: 64 17.73547680591142
A6:50%: 59 17.21174025792111
A1: 182 22.681554296277643
A6:75%: 111 20.60182632418089
A7:toyota:schumacher: 46 15.32279808683371
A2:mazda: 63 17.446789377560403
A7:toyota:crash: 77 18.592668629776476
A7:toyota:stig: 19 7.038446094124046
A7:mazda:stig: 20 7.848689143151772
A4:low-profile: 65 17.73464558511034
2038
A1
Step 15: performing A1
	Sampled move distance=3
	Next State: [ Pos=22 | Car=go-kart | Driver=mushroom | Tire=MUD | Pressure=100% | Fuel=40 ]

A4:all-terrain: 29 13.382647358322302
A3:anakin: 100 21.713642349203166
A7:ferarri:schumacher: 57 18.604529189886115
A6:50%: 90 21.35421912259076
A5:10: 119 22.779336764184666
A7:toyota:anakin: 44 16.53315991403071
A4:low-profile: 82 20.782529459186527
A7:toyota:stig: 14 4.581114614268611
A7:humvee:crash: 75 20.387875068825238
A4:performance: 76 20.36737468056927
A7:humvee:stig: 87 21.257770783541
A7:toyota:schumacher: 25 12.016018521480506
A7:mazda:stig: 37 15.515979249920612
A1: 192 24.642501337556713
A3:stig: 57 18.421375061562685
A3:crash: 86 20.9837793804486
A7:humvee:schumacher: 109 22.2999961288502
A6:75%: 137 23.37167122177707
A3:schumacher: 106 22.258967925378624
A7:mazda:anakin: 16 6.711285228174803
A2:mazda: 90 21.431855568991683
A2:humvee: 83 20.93682533927616
A2:toyota: 120 22.799862377442157
A7:toyota:crash: 144 23.450646188920476
A7:mazda:schumacher: 47 17.175147589651864
A7:ferarri:stig: 73 20.037157186234765
A7:ferarri:crash: 101 21.897074837444578
A2:ferarri: 92 21.552443056064206
A7:mazda:crash: 59 18.770063926917086
A7:ferarri:anakin: 71 19.78363666692827
A7:humvee:anakin: 119 22.663675559805174
2537
A1
Step 16: performing A1
	Sampled move distance=SLIP
	Next State: [ Pos=22 | Car=go-kart | Driver=mushroom | Tire=MUD | Pressure=100% | Fuel=39 ]

A1: 213 24.585153417990384
A7:ferarri:schumacher: 32 13.897191287974826
A7:humvee:crash: 135 22.869301913297146
A7:mazda:crash: 35 14.470307651727435
A3:crash: 71 19.463667070391345
A5:11: 89 20.71796386275915
A7:mazda:anakin: 38 15.04228331621348
A3:schumacher: 104 21.616579551891725
A7:humvee:anakin: 99 21.429553150791964
A4:all-terrain: 23 9.959293768836096
A7:toyota:crash: 132 22.733006246972018
A7:mazda:schumacher: 57 17.9427050313367
A7:ferarri:stig: 57 18.252249008631278
A3:anakin: 131 22.566753957388983
A2:mazda: 37 14.762732428410487
A6:75%: 95 21.102644027144574
A2:humvee: 74 19.8272808124496
A2:ferarri: 102 21.579248990713484
A7:toyota:schumacher: 27 11.865773421928179
A2:toyota: 97 21.292673694934393
A4:low-profile: 104 21.510805362806746
A7:ferarri:anakin: 56 18.10836268440103
A6:50%: 121 22.25655351614381
A7:mazda:stig: 45 16.588859389480916
A7:toyota:stig: 19 8.242328565733983
A7:ferarri:crash: 83 20.333051690675415
A3:stig: 61 18.564001951261066
A4:performance: 93 20.955621474802843
A7:humvee:schumacher: 113 21.941806471650136
A7:humvee:stig: 87 20.623499030758648
A7:toyota:anakin: 39 15.245082010811256
2469
A1
Step 18: performing A1
	Sampled move distance=3
	Next State: [ Pos=25 | Car=go-kart | Driver=mushroom | Tire=MUD | Pressure=100% | Fuel=38 ]

A4:all-terrain: 27 20.031691714222713
A7:mazda:anakin: 10 7.657277405507623
A2:mazda: 41 23.284843800952917
A3:stig: 81 27.97030014941298
A7:mazda:crash: 33 21.376965665071456
A7:ferarri:schumacher: 61 26.262193411279526
A3:schumacher: 59 25.884939446203045
A7:mazda:stig: 24 18.257670432523117
A2:ferarri: 55 25.696530545822945
A7:humvee:crash: 57 26.028461971434307
A7:toyota:schumacher: 45 24.004018173244848
A3:crash: 79 27.967503537245324
A7:humvee:stig: 57 25.847108174518866
A7:humvee:schumacher: 40 23.0582522721727
A3:anakin: 65 26.836560872302933
A7:toyota:stig: 10 7.658011907344587
A2:humvee: 67 27.031329813551423
A7:mazda:schumacher: 29 20.923409185243603
A7:ferarri:stig: 16 14.715115468380697
A5:12: 41 23.527985963786698
A4:low-profile: 46 24.532013561253507
A7:humvee:anakin: 73 27.559271996449187
A6:50%: 72 27.109879011586454
A6:75%: 63 26.50268608113065
A4:performance: 51 24.966803468716687
A7:toyota:anakin: 22 17.98860977448671
A7:ferarri:anakin: 41 23.23621377200988
A7:toyota:crash: 75 27.70095325915688
A2:toyota: 76 27.690713466170294
A1: 13213 58.65264931069707
A7:ferarri:crash: 73 27.395682757275885
14702
A1
Step 19: performing A1
	Sampled move distance=3
	Next State: [ Pos=28 | Car=go-kart | Driver=mushroom | Tire=MUD | Pressure=100% | Fuel=37 ]

A7:humvee:schumacher: 17 37.94382649795235
A4:low-profile: 11 30.070285554774113
A7:ferarri:crash: 14 34.41821529430952
A7:ferarri:stig: 9 25.40557503710495
A7:mazda:anakin: 8 22.868831911331547
A7:ferarri:anakin: 15 34.472431296691916
A3:anakin: 12 31.76743258248091
A7:mazda:crash: 11 27.38370079672203
A7:toyota:stig: 4 1.4747087937677028
A7:toyota:schumacher: 12 29.987987881479388
A1: 1255560 70.2145779563438
A6:75%: 17 37.88351776770849
A2:humvee: 20 38.26706924315809
A7:humvee:anakin: 10 26.339328831779575
A2:mazda: 20 38.62720661089263
A2:ferarri: 13 31.8523600413432
A4:performance: 9 25.19759911786081
A7:humvee:crash: 20 39.36117501592435
A3:schumacher: 15 34.185978527408366
A7:mazda:stig: 15 35.05091035419553
A2:toyota: 18 37.36440952655237
A4:all-terrain: 4 3.3249393376065903
A7:toyota:anakin: 12 30.569705877755442
A7:ferarri:schumacher: 16 36.82384726224795
A3:crash: 18 38.70578992732667
A7:mazda:schumacher: 12 30.876839551166597
A6:50%: 16 37.140065236309674
A3:stig: 14 32.73974182465984
A5:13: 21 40.56230532510657
A7:toyota:crash: 16 36.16718974339886
A7:humvee:stig: 23 41.915517939276725
1255982
A1
Step 20: performing A1
	Sampled move distance=3
	Next State: [ Pos=30 | Car=go-kart | Driver=mushroom | Tire=MUD | Pressure=100% | Fuel=36 ]

Goal reached after 21 steps.
Writing steps to output file
Solved!
