Resetting simulator
Start State: [ Pos=1 | Car=mazda | Driver=stig | Tire=ALL_TERRAIN | Pressure=100% | Fuel=50 ]

A7:ferarri:crash: 48 4.956937531656882
A7:go-kart:schumacher: 53 5.543170257266993
A7:ferarri:anakin: 43 4.183152077147628
A7:toyota:mushroom: 44 4.3478320359535845
A3:mushroom: 50 5.134997722923357
A7:humvee:crash: 45 4.337526370834725
A6:75%: 51 5.349903579608026
A7:humvee:mushroom: 36 2.5904091013669412
A7:humvee:anakin: 48 4.86223405835828
A1: 40 3.5842184951919087
A6:50%: 40 3.4744567675338183
A7:toyota:crash: 51 5.314158039085079
A4:low-profile: 84 8.16606615638295
A7:toyota:schumacher: 47 4.809111016900042
A2:humvee: 45 4.3874430663197375
A7:humvee:schumacher: 55 5.751779408087037
A2:go-kart: 55 6.014688998503312
A7:toyota:anakin: 50 5.031735993871216
A3:schumacher: 39 3.403520301718293
A3:anakin: 48 4.764790780255507
A3:crash: 53 5.578190888013352
A7:go-kart:crash: 46 4.587203768002151
A2:ferarri: 61 6.310966048961268
A7:go-kart:anakin: 34 2.3613023225553844
A2:toyota: 42 3.8215655495225564
1208
A4:low-profile
Step 0: performing A4
	Next State: [ Pos=1 | Car=mazda | Driver=stig | Tire=LOW_PROFILE | Pressure=100% | Fuel=50 ]

A6:50%: 54 9.018928608756617
A7:toyota:anakin: 49 8.57363841507999
A3:crash: 75 11.047948710604574
A4:all-terrain: 24 2.58004120683288
A3:schumacher: 56 9.333928868833135
A2:toyota: 37 6.507865673067604
A3:anakin: 37 6.532282610930904
A7:go-kart:crash: 60 9.768875765267358
A7:toyota:schumacher: 40 7.137156974920737
A7:humvee:mushroom: 52 8.886717117384094
A2:go-kart: 50 8.62879489504384
A7:go-kart:anakin: 49 8.370580227781828
A7:humvee:schumacher: 47 8.264197322364527
A7:humvee:anakin: 43 7.624672660675945
A6:75%: 49 8.42803528982388
A2:humvee: 50 8.62270159681641
A7:go-kart:schumacher: 50 8.530742803741623
A7:toyota:mushroom: 42 7.431934922184653
A3:mushroom: 57 9.563351013209301
A1: 58 9.49735868576952
A4:mud: 278 16.48120081976752
A4:performance: 79 11.445031619419922
A7:humvee:crash: 45 7.81579602908458
A7:toyota:crash: 41 7.104189059242488
1422
A4:mud
Step 1: performing A4
	Next State: [ Pos=1 | Car=mazda | Driver=stig | Tire=MUD | Pressure=100% | Fuel=50 ]

A3:anakin: 50 13.81673616926801
A7:go-kart:mushroom: 81 16.962596777017893
A7:toyota:crash: 47 13.476719856564
A7:go-kart:anakin: 86 17.125933292354603
A4:low-profile: 33 10.541775112302506
A6:75%: 114 18.68079626109668
A3:schumacher: 48 13.595434545315749
A7:humvee:schumacher: 71 16.0912038117095
A2:toyota: 59 15.020591788053917
A7:toyota:mushroom: 66 15.773677059563187
A6:50%: 70 15.990171039081938
A7:go-kart:crash: 62 15.460645777143649
A3:mushroom: 99 17.9339863838485
A7:toyota:schumacher: 105 18.15051141925673
A4:performance: 48 13.55083141096909
A7:toyota:anakin: 61 15.18223522100637
A7:humvee:mushroom: 71 16.143940501629082
A4:all-terrain: 16 3.033059602275589
A2:humvee: 77 16.459960090867437
A1: 132 19.2598048802829
A3:crash: 113 18.477017381155637
A2:go-kart: 67 15.923635245863803
A7:humvee:crash: 62 15.438397157601264
A7:go-kart:schumacher: 98 17.830467842537743
A7:humvee:anakin: 73 16.388014061740925
1809
A1
Step 2: performing A1
	Sampled move distance=5
	Next State: [ Pos=6 | Car=mazda | Driver=stig | Tire=MUD | Pressure=100% | Fuel=47 ]

A7:humvee:mushroom: 56 18.810698327418837
A3:anakin: 97 21.894785952374043
A7:toyota:mushroom: 54 18.732644066592794
A7:toyota:anakin: 32 14.764992122684454
A7:toyota:crash: 45 17.172983442714806
A7:toyota:schumacher: 72 20.277782280803226
A2:toyota: 76 20.79924845095785
A4:performance: 38 16.286062958388673
A3:mushroom: 68 20.17181793056746
A7:go-kart:mushroom: 81 21.00304631572291
A2:humvee: 55 18.667423981593725
A6:50%: 59 19.251877796300555
A7:go-kart:schumacher: 82 21.184548186000047
A7:humvee:schumacher: 59 18.999956633803414
A6:75%: 52 18.433199559079934
A7:go-kart:crash: 73 20.452842251353694
A3:schumacher: 41 16.78461993528129
A1: 77 20.673761927617946
A4:all-terrain: 12 3.5743805709868983
A2:go-kart: 50 18.12160064692288
A4:low-profile: 17 8.18018974550799
A7:humvee:crash: 66 19.6785044808511
A3:crash: 47 17.790402642463896
A7:go-kart:anakin: 75 20.599327837755574
A5:3: 61 19.16903117883228
A7:humvee:anakin: 51 18.265094089468125
1496
A3:anakin
Step 3: performing A3
	Next State: [ Pos=6 | Car=mazda | Driver=anakin | Tire=MUD | Pressure=100% | Fuel=47 ]

A3:schumacher: 55 18.735182357908524
A7:humvee:schumacher: 83 21.083708607367768
A1: 61 19.386411067672277
A4:all-terrain: 11 2.4585714409718014
A7:humvee:crash: 89 21.50829996276167
A7:go-kart:schumacher: 81 20.821128684452802
A4:low-profile: 26 12.779711919990602
A6:50%: 68 20.088298304675153
A7:toyota:stig: 72 20.319479177354786
A7:go-kart:stig: 87 21.35858970900131
A3:mushroom: 64 19.673723719178838
A7:toyota:schumacher: 36 15.263724220021873
A7:toyota:mushroom: 72 20.45041324154329
A6:75%: 111 22.607893561427552
A2:go-kart: 77 20.818231076019295
A5:3: 87 21.438514295697864
A2:toyota: 57 18.9134427028986
A2:humvee: 51 18.27055362353961
A3:crash: 65 19.668815131597437
A7:toyota:crash: 40 16.459389920297895
A7:go-kart:crash: 52 18.43935536011249
A3:stig: 73 20.455669861441617
A4:performance: 24 12.04834112909314
A7:humvee:mushroom: 49 18.034093413143108
A7:humvee:stig: 67 19.995929554955524
1558
A6:75%
Step 4: performing A6
	Next State: [ Pos=6 | Car=mazda | Driver=anakin | Tire=MUD | Pressure=75% | Fuel=47 ]

A4:low-profile: 20 8.518011474521
A7:go-kart:stig: 104 21.190844179213993
A1: 76 19.585100242042923
A6:50%: 68 18.98801073154209
A4:performance: 24 10.474614604968446
A5:3: 56 17.446669680283467
A7:toyota:crash: 73 19.439243674281983
A7:humvee:crash: 62 18.373551046437985
A7:humvee:stig: 78 19.644522694671696
A7:go-kart:schumacher: 60 18.008238429598535
A7:humvee:schumacher: 60 18.242261637084326
A7:toyota:stig: 66 18.813300084833557
A7:toyota:schumacher: 78 19.794946596771222
A4:all-terrain: 11 1.3997579602938877
A2:humvee: 61 18.150084423843758
A3:crash: 81 19.970159728848746
A2:toyota: 44 16.123615570243047
A3:mushroom: 83 20.424738468457992
A3:schumacher: 57 17.778837710056063
A7:humvee:mushroom: 67 18.8841752557743
A2:go-kart: 70 19.04868542275423
A6:100%: 52 17.170441320550626
A7:toyota:mushroom: 84 20.08608170866285
A3:stig: 61 18.216243997245815
A7:go-kart:crash: 74 19.506836919504384
1570
A7:go-kart:stig
Step 5: performing A7
	Next State: [ Pos=6 | Car=go-kart | Driver=stig | Tire=MUD | Pressure=100% | Fuel=50 ]

A7:mazda:crash: 45 16.338319113732425
A3:mushroom: 82 20.040060522673944
A1: 105 21.213120754806205
A3:crash: 40 15.190747294127615
A7:humvee:crash: 83 20.0058566306066
A2:toyota: 52 17.346337414327515
A6:50%: 52 17.150761797342362
A3:schumacher: 73 19.26308734645853
A7:toyota:mushroom: 73 19.359576310254
A2:mazda: 64 18.616327361194365
A3:anakin: 81 19.872886604941755
A7:mazda:mushroom: 63 18.363949855505233
A4:all-terrain: 13 3.7166671533063886
A2:humvee: 56 17.664085924373286
A4:performance: 37 14.527363550899505
A7:toyota:anakin: 65 18.477883105564523
A6:75%: 62 18.463591912898234
A4:low-profile: 20 9.098065246964499
A7:mazda:schumacher: 60 18.12131298401166
A7:toyota:schumacher: 71 19.2322210152335
A7:humvee:mushroom: 92 20.669140633124663
A7:toyota:crash: 37 14.87971768806459
A7:humvee:schumacher: 71 19.190853212371135
A7:mazda:anakin: 84 20.153816520500854
A7:humvee:anakin: 32 13.497131602328345
1513
A1
Step 6: performing A1
	Sampled move distance=3
	Next State: [ Pos=9 | Car=go-kart | Driver=stig | Tire=MUD | Pressure=100% | Fuel=49 ]

A1: 86 21.33143219842332
A7:toyota:mushroom: 72 20.437624735157478
A6:75%: 66 19.684572468466587
A7:humvee:anakin: 52 18.27693306660472
A7:toyota:anakin: 61 19.50257353796659
A3:crash: 47 17.412368432499107
A7:mazda:mushroom: 69 20.17879420887843
A7:toyota:schumacher: 52 18.202499202948754
A7:humvee:mushroom: 68 20.081194323666384
A7:humvee:crash: 91 21.672134053091096
A7:mazda:schumacher: 58 19.004032682742764
A2:toyota: 84 21.23410610250283
A3:schumacher: 72 20.31237793107168
A7:mazda:anakin: 61 19.279223278473555
A2:humvee: 39 16.30763929977642
A4:performance: 32 14.902096665719293
A5:1: 81 21.031194553800912
A4:low-profile: 23 11.564062884497584
A7:mazda:crash: 73 20.48180456630233
A3:anakin: 100 22.137290481428444
A6:50%: 70 20.093838042933402
A4:all-terrain: 12 3.1301650553498237
A7:humvee:schumacher: 35 15.303204874717894
A7:toyota:crash: 31 14.467580590872098
A2:mazda: 46 17.505579369964302
1481
A3:anakin
Step 7: performing A3
	Next State: [ Pos=9 | Car=go-kart | Driver=anakin | Tire=MUD | Pressure=100% | Fuel=49 ]

A6:75%: 77 20.697915346455424
A7:mazda:stig: 70 19.863312892420808
A3:mushroom: 93 21.613143094178376
A7:toyota:schumacher: 72 20.265885989950974
A2:toyota: 55 18.678791080833918
A3:crash: 66 19.504376100424864
A7:toyota:crash: 50 17.983567438586416
A7:mazda:mushroom: 79 20.802338942784733
A3:stig: 61 19.187470181072555
A7:toyota:stig: 56 18.706969660890383
A4:performance: 44 17.12932985312502
A7:humvee:mushroom: 54 18.423823064074757
A5:1: 64 19.45168252925397
A4:all-terrain: 15 6.189970383509725
A2:humvee: 72 20.094935358933725
A1: 107 22.169060022529358
A2:mazda: 82 20.977175622665076
A7:humvee:crash: 95 21.68445341884231
A7:toyota:mushroom: 57 18.674205250157264
A6:50%: 97 21.85535783621886
A7:humvee:schumacher: 74 20.384258813003758
A7:mazda:schumacher: 72 20.227692952853506
A7:humvee:stig: 51 18.026915744778357
A4:low-profile: 29 13.500235341887977
A7:mazda:crash: 61 18.957163692052983
A3:schumacher: 59 19.068492942349405
1712
A1
Step 8: performing A1
	Sampled move distance=3
	Next State: [ Pos=12 | Car=go-kart | Driver=anakin | Tire=MUD | Pressure=100% | Fuel=47 ]

A2:humvee: 53 19.914141672978797
A7:toyota:schumacher: 45 18.85181414356506
A2:toyota: 22 12.650859472691728
A7:mazda:mushroom: 72 21.812435701087264
A7:toyota:stig: 80 22.328312285878205
A7:humvee:stig: 88 22.80504203847067
A4:low-profile: 15 8.3371599140417
A4:all-terrain: 12 4.529700216285144
A2:mazda: 54 20.016176250482577
A6:50%: 100 23.6143822932188
A7:humvee:crash: 71 21.673710873856532
A7:mazda:crash: 48 19.151897673695466
A3:mushroom: 97 23.418513333562437
A4:performance: 31 15.636733149179834
A3:crash: 67 21.281469545839617
A3:stig: 45 18.821699918262475
A1: 84 22.735755827467838
A7:toyota:mushroom: 59 20.42753595671052
A7:humvee:schumacher: 51 19.59259202444955
A6:75%: 82 22.55948614503366
A7:toyota:crash: 34 16.38912717703245
A7:mazda:schumacher: 79 22.39574424962545
A3:schumacher: 78 22.18427718639929
A5:3: 73 21.828094525231936
A7:ferarri:schumacher: 121 24.47837705913579
A7:humvee:mushroom: 80 22.406797022965296
A7:mazda:stig: 69 21.552831656506665
1710
A7:ferarri:schumacher
Step 9: performing A7
	Next State: [ Pos=12 | Car=ferarri | Driver=schumacher | Tire=MUD | Pressure=100% | Fuel=50 ]

A6:50%: 84 23.34556095604149
A2:go-kart: 82 23.10749541872237
A7:mazda:stig: 90 23.63091618812211
A2:humvee: 84 23.361866595421894
A7:mazda:crash: 58 21.159892452021083
A7:humvee:anakin: 115 24.83008838995179
A7:mazda:mushroom: 56 21.05884085635631
A7:humvee:mushroom: 67 21.9919359723229
A3:crash: 78 23.051939641836015
A7:toyota:anakin: 34 17.41586025590199
A2:toyota: 73 22.38547734873742
A4:low-profile: 16 9.602257801807513
A7:toyota:crash: 38 18.266442513708444
A7:go-kart:anakin: 62 21.41327950132812
A4:all-terrain: 12 6.006945270393767
A7:toyota:stig: 64 21.77959134150214
A3:mushroom: 82 23.24616132500096
A7:go-kart:mushroom: 76 22.90378712399466
A7:go-kart:stig: 30 15.798468145119596
A2:mazda: 58 21.227446150347692
A4:performance: 29 15.990784239098316
A7:go-kart:crash: 53 20.672930500533255
A1: 133 25.42186191902988
A7:toyota:mushroom: 69 22.340333171653203
A7:mazda:anakin: 58 21.18622949660734
A7:humvee:stig: 68 22.275706498900234
A6:75%: 60 21.151446303321517
A7:humvee:crash: 57 20.913278288945072
1786
A1
Step 10: performing A1
	Sampled move distance=2
	Next State: [ Pos=14 | Car=ferarri | Driver=schumacher | Tire=MUD | Pressure=100% | Fuel=47 ]

A5:3: 108 25.078442555821752
A7:go-kart:stig: 82 23.743042116758133
A4:all-terrain: 14 7.257572400818417
A6:50%: 104 24.886786365156453
A6:75%: 91 24.24961636033869
A2:go-kart: 61 21.878395649348214
A1: 129 25.949233661928464
A7:toyota:anakin: 49 20.58502853483389
A7:humvee:mushroom: 65 22.466209928308075
A7:go-kart:mushroom: 70 22.945014051887078
A7:humvee:stig: 59 21.77183224059441
A7:go-kart:crash: 60 21.758748003917606
A7:mazda:anakin: 30 16.828316336391296
A7:mazda:crash: 63 21.998174419165608
A2:toyota: 73 23.177547798983298
A7:humvee:crash: 68 22.501908252827363
A3:mushroom: 101 24.898117721075216
A7:toyota:crash: 49 20.553351601447794
A7:mazda:stig: 62 21.85679573804286
A7:toyota:mushroom: 74 23.219540770289672
A7:toyota:stig: 56 21.539097972932602
A7:mazda:mushroom: 49 20.2677297272021
A2:humvee: 70 23.11805241311774
A7:go-kart:anakin: 60 21.867218191475423
A7:humvee:anakin: 51 20.689529281839192
A2:mazda: 47 20.09340778560895
A3:crash: 71 22.853306702847306
A4:low-profile: 27 15.38625188595713
A4:performance: 43 19.334499866959426
1886
A1
Step 11: performing A1
	Sampled move distance=5
	Next State: [ Pos=19 | Car=ferarri | Driver=schumacher | Tire=MUD | Pressure=100% | Fuel=44 ]

A1: 235 30.027485817991597
A7:go-kart:stig: 57 23.16688421248723
A7:toyota:mushroom: 60 23.541115444615574
A7:mazda:crash: 44 21.650397137692547
A7:toyota:crash: 64 23.967844920185915
A4:low-profile: 26 17.137172754276865
A7:humvee:crash: 106 26.935955971371495
A2:humvee: 72 24.67567675874712
A7:humvee:stig: 49 22.21550180853562
A6:75%: 85 25.67628149970126
A7:toyota:stig: 74 25.036259754854893
A7:go-kart:crash: 69 24.383686232340384
A2:mazda: 65 24.23358955788359
A7:humvee:anakin: 56 23.191205855989015
A7:mazda:anakin: 41 21.024784549833036
A7:mazda:stig: 85 25.80918132540799
A5:6: 89 25.96063010268707
A7:go-kart:anakin: 82 25.488527093482467
A2:toyota: 52 22.639334458217114
A2:go-kart: 142 28.21576702549566
A6:50%: 90 26.05425771914631
A3:crash: 151 28.447012170375483
A7:toyota:anakin: 72 24.778129589233313
A7:go-kart:mushroom: 84 25.438165003834992
A4:performance: 22 15.461318408165821
A7:mazda:mushroom: 92 25.98440527047145
A7:humvee:mushroom: 78 25.224374916012582
A4:all-terrain: 12 7.558563334454647
A3:mushroom: 94 26.22116131572902
2248
A1
Step 12: performing A1
	Sampled move distance=2
	Next State: [ Pos=21 | Car=ferarri | Driver=schumacher | Tire=MUD | Pressure=100% | Fuel=41 ]

A3:mushroom: 108 30.410097116785906
A2:mazda: 57 26.845793117034404
A2:toyota: 42 24.57626635634752
A7:go-kart:crash: 97 29.855122023392084
A4:performance: 37 23.67564759560054
A7:mazda:anakin: 38 23.79893449022346
A7:toyota:anakin: 75 28.306288285978415
A7:mazda:crash: 100 30.11515141512889
A7:toyota:crash: 33 22.58770554376544
A2:go-kart: 94 29.77581156448419
A1: 435 35.269853419540944
A7:humvee:crash: 42 24.251474962442117
A7:humvee:stig: 77 28.390915432779867
A7:humvee:anakin: 72 28.36040825587924
A4:all-terrain: 7 2.4768093536716185
A3:crash: 76 28.791352663986824
A7:go-kart:stig: 56 26.703971229703622
A7:go-kart:anakin: 86 29.117367559618796
A5:9: 99 30.048293915354137
A4:low-profile: 40 24.41231718635755
A7:toyota:stig: 82 28.94671528419059
A7:toyota:mushroom: 75 28.49603782303108
A7:mazda:stig: 65 27.459157902230338
A7:mazda:mushroom: 56 26.76222258986621
A7:go-kart:mushroom: 119 30.929714669931165
A6:50%: 157 32.151597793389605
A6:75%: 160 32.14714757646751
A7:humvee:mushroom: 100 30.072155580184997
A2:humvee: 67 27.909859850769443
2552
A1
Step 13: performing A1
	Sampled move distance=2
	Next State: [ Pos=23 | Car=ferarri | Driver=schumacher | Tire=MUD | Pressure=100% | Fuel=36 ]

A1: 1940 44.39990674098437
A5:14: 93 33.45678215152113
A7:go-kart:stig: 73 32.11513733213521
A7:humvee:crash: 77 32.349547406339774
A2:mazda: 67 31.475825516416155
A4:low-profile: 19 20.925313798622017
A7:toyota:crash: 31 25.691491712216756
A2:go-kart: 59 30.822207291972997
A7:mazda:crash: 69 31.799839513130046
A7:humvee:stig: 57 30.242760335309256
A4:all-terrain: 6 2.5481648094696387
A7:toyota:stig: 80 32.42163732188053
A6:50%: 132 35.04541757135791
A2:toyota: 101 33.63864603000991
A4:performance: 43 28.53993642315187
A7:toyota:anakin: 62 31.153336212250686
A3:crash: 99 33.74000257931663
A7:mazda:stig: 75 31.960556811979345
A7:go-kart:anakin: 71 31.833259938747776
A7:toyota:mushroom: 72 31.919224889522834
A3:mushroom: 108 34.20574955991407
A2:humvee: 59 30.868628058056508
A7:go-kart:crash: 26 24.222241677715658
A7:humvee:mushroom: 38 27.48024049379674
A7:mazda:mushroom: 117 34.437173685810905
A6:75%: 101 33.810334171322566
A7:humvee:anakin: 74 32.036365653748064
A7:mazda:anakin: 47 28.958858024441057
A7:go-kart:mushroom: 51 29.747390119502594
3847
A1
Step 14: performing A1
	Sampled move distance=5
	Next State: [ Pos=28 | Car=ferarri | Driver=schumacher | Tire=MUD | Pressure=100% | Fuel=35 ]

A6:50%: 23 48.59226236196952
A7:go-kart:stig: 20 46.905092163569314
A7:humvee:mushroom: 27 50.0352330170971
A4:all-terrain: 5 17.41494549685904
A6:75%: 18 42.75249084806564
A7:mazda:mushroom: 29 50.82120000176405
A7:mazda:stig: 23 48.64672833873345
A7:toyota:anakin: 10 33.290341582341
A7:humvee:anakin: 11 36.9999997116486
A2:toyota: 18 42.617221127074544
A2:mazda: 10 32.377015572086
A2:humvee: 25 48.85129459964655
A2:go-kart: 15 42.163245091971966
A7:toyota:crash: 13 40.28456856106378
A3:crash: 25 48.1648472786996
A7:toyota:stig: 16 42.08913631046671
A7:toyota:mushroom: 14 40.078095955416316
A4:performance: 7 25.38008419380791
A5:15: 14 40.51515323918195
A7:go-kart:anakin: 12 38.36012054847575
A7:mazda:crash: 11 36.580426348716664
A7:mazda:anakin: 20 46.573029284679926
A7:humvee:crash: 18 45.349021981174396
A4:low-profile: 7 28.037229517473587
A7:humvee:stig: 23 48.396218898245436
A7:go-kart:crash: 13 37.89076858197409
A3:mushroom: 30 51.86210605806286
A7:go-kart:mushroom: 23 46.96095720053469
A1: 136246 73.8992940851107
136726
A1
Step 15: performing A1
	Sampled move distance=5
	Next State: [ Pos=30 | Car=ferarri | Driver=schumacher | Tire=MUD | Pressure=100% | Fuel=34 ]

Goal reached after 16 steps.
Writing steps to output file
Solved!
