Resetting simulator
Start State: [ Pos=1 | Car=mazda | Driver=stig | Tire=ALL_TERRAIN | Pressure=100% | Fuel=50 ]

A7:ferarri:crash: 36 1.3557998671841132
A7:go-kart:schumacher: 36 1.3716462558486429
A7:ferarri:anakin: 35 1.1391819365438607
A7:go-kart:mushroom: 36 1.4640982685568122
A7:toyota:mushroom: 35 1.2428878503879726
A3:mushroom: 35 1.106368338165878
A7:ferarri:schumacher: 35 1.12692154982631
A7:humvee:crash: 35 1.19451946249774
A6:75%: 36 1.470582975438022
A7:humvee:mushroom: 36 1.419057221038691
A7:humvee:anakin: 36 1.4319836936076313
A1: 35 1.1575083458954591
A6:50%: 35 1.2217241075056264
A7:toyota:crash: 36 1.3956483958966062
A4:performance: 37 1.6167780452779674
A4:low-profile: 35 1.1423719058358643
A7:toyota:schumacher: 36 1.3194462579117223
A2:humvee: 36 1.3755592384045687
A7:humvee:schumacher: 35 1.2498353904851045
A2:go-kart: 37 1.52820280952424
A7:toyota:anakin: 36 1.2543559736087546
A3:schumacher: 35 1.2415594135083567
A3:anakin: 35 1.1640016254091643
A3:crash: 36 1.4866828594773274
A7:ferarri:mushroom: 34 0.970134897876234
A7:go-kart:crash: 36 1.2570175930600007
A2:ferarri: 36 1.3747905047599618
A7:go-kart:anakin: 37 1.4565772846999416
A2:toyota: 35 1.207730213623646
1033
A4:performance
Heuristic 1 used.
Step 0: performing A1
	Sampled move distance=2
	Next State: [ Pos=3 | Car=mazda | Driver=stig | Tire=ALL_TERRAIN | Pressure=100% | Fuel=45 ]

A2:ferarri: 36 1.4160003642846717
A3:anakin: 35 1.2129444919074204
A7:humvee:schumacher: 35 1.1776037921041211
A7:ferarri:mushroom: 35 1.080731737771854
A2:humvee: 35 1.2230387250749464
A7:go-kart:schumacher: 36 1.2700100930152212
A7:go-kart:crash: 36 1.2748419495536598
A2:toyota: 36 1.3001225304957815
A2:go-kart: 35 1.211919769082284
A5:5: 35 1.097636129376648
A7:ferarri:crash: 35 1.1303127775298625
A7:ferarri:anakin: 35 1.108433943714539
A7:humvee:anakin: 36 1.3793168761433652
A7:toyota:mushroom: 35 1.2561818847652428
A4:performance: 36 1.3672728904861402
A6:75%: 36 1.3418964775252313
A4:low-profile: 34 0.8915578356674203
A7:toyota:schumacher: 37 1.5052114837712731
A3:crash: 36 1.4326541837292253
A7:go-kart:mushroom: 35 1.2317629374487211
A7:toyota:anakin: 35 1.1783875025781316
A7:toyota:crash: 36 1.3369480862931797
A6:50%: 37 1.5468013047535039
A7:humvee:mushroom: 35 1.0574808259011235
A1: 37 1.6796233263775835
A3:mushroom: 36 1.344922730041087
A3:schumacher: 36 1.3756118077742345
A7:go-kart:anakin: 36 1.3677086624466754
A7:humvee:crash: 37 1.5228928556993768
A7:ferarri:schumacher: 35 1.249016184348023
1069
A1
Step 1: performing A1
	Sampled move distance=2
	Next State: [ Pos=5 | Car=mazda | Driver=stig | Tire=ALL_TERRAIN | Pressure=100% | Fuel=40 ]

A7:humvee:schumacher: 34 1.1006876081333008
A7:ferarri:schumacher: 34 1.0800122983902758
A7:go-kart:mushroom: 34 1.0060865962748387
A2:go-kart: 36 1.503856040951325
A7:toyota:schumacher: 34 1.1799006847944304
A4:mud: 37 1.7321291059549768
A7:go-kart:schumacher: 35 1.2585331145059033
A7:ferarri:crash: 36 1.4748698033721668
A6:50%: 35 1.166730425791064
A6:75%: 36 1.542232389883645
A7:toyota:mushroom: 36 1.398137256651972
A5:10: 35 1.3584790284095118
A2:humvee: 33 0.9017628440341307
A7:ferarri:anakin: 35 1.2652626840922563
A7:humvee:anakin: 33 0.8437825799019686
A7:toyota:crash: 35 1.3437002466622645
A7:ferarri:mushroom: 34 0.9934097167484846
A3:crash: 35 1.2236412867948125
A3:anakin: 37 1.623305574022455
A1: 34 1.1424107250766937
A7:go-kart:anakin: 35 1.2205685554732184
A7:go-kart:crash: 34 1.1675067344874055
A2:ferarri: 35 1.281858618333641
A7:toyota:anakin: 35 1.384572157085403
A7:humvee:crash: 34 1.130797901105323
A2:toyota: 34 1.1796101883982513
A4:performance: 37 1.8246714925209082
A4:low-profile: 34 1.0590438855399698
A3:mushroom: 35 1.18876544176742
A3:schumacher: 36 1.5686097433427313
A7:humvee:mushroom: 34 0.9830139311064677
1081
A4:performance
Heuristic 1 used.
Step 2: performing A1
	Sampled move distance=-3
	Next State: [ Pos=2 | Car=mazda | Driver=stig | Tire=ALL_TERRAIN | Pressure=100% | Fuel=35 ]

A7:humvee:mushroom: 38 1.374359724278654
A7:ferarri:anakin: 37 1.1551448618666083
A7:humvee:schumacher: 37 1.1010070812619543
A7:toyota:schumacher: 38 1.4838442703801056
A2:ferarri: 38 1.4546908072178606
A3:schumacher: 37 1.1251687611474872
A3:anakin: 39 1.599517835490906
A7:humvee:crash: 37 1.251457147695552
A7:humvee:anakin: 37 1.1503158144199437
A7:ferarri:mushroom: 37 1.1940771457734711
A7:go-kart:schumacher: 36 1.08768230196288
A7:toyota:crash: 39 1.5578600731075731
A7:toyota:anakin: 39 1.5373165776106625
A3:mushroom: 40 1.815132477279689
A6:75%: 39 1.5329714967232364
A2:humvee: 37 1.282163193835192
A1: 38 1.4553877969568723
A2:go-kart: 36 1.076811016629084
A7:go-kart:anakin: 37 1.1260480352600752
A4:performance: 41 1.8926015274211858
A6:50%: 36 1.031500906009242
A7:go-kart:crash: 38 1.2838374673711945
A2:toyota: 37 1.250504273033557
A3:crash: 38 1.4143505620804355
A7:ferarri:schumacher: 37 1.26136332935457
A7:ferarri:crash: 38 1.4509887616059318
A5:15: 38 1.3544047325008604
A4:low-profile: 36 1.063991851685023
A7:toyota:mushroom: 37 1.151575514837905
A7:go-kart:mushroom: 37 1.2710069868412486
1129
A4:performance
Heuristic 1 used.
Step 3: performing A1
	Sampled move distance=-1
	Next State: [ Pos=1 | Car=mazda | Driver=stig | Tire=ALL_TERRAIN | Pressure=100% | Fuel=31 ]

A7:go-kart:crash: 41 1.4294161366152265
A3:anakin: 40 1.122740622389164
A7:toyota:anakin: 42 1.5115519116734373
A2:go-kart: 40 1.1183174171815242
A1: 42 1.4608529869531006
A6:50%: 40 1.1035553632723152
A7:go-kart:anakin: 42 1.5086984189056165
A5:19: 40 1.1490249789969944
A7:ferarri:schumacher: 40 1.1652343517706907
A7:ferarri:anakin: 41 1.3427582450169266
A7:ferarri:mushroom: 40 1.2038340206937574
A7:humvee:mushroom: 39 0.9518927330082536
A7:go-kart:schumacher: 41 1.263916510141849
A7:humvee:crash: 41 1.3214345077988663
A7:humvee:schumacher: 40 1.143756527066182
A2:humvee: 40 1.1399574389237648
A7:ferarri:crash: 42 1.5125412671495173
A7:go-kart:mushroom: 40 1.2249253979812305
A3:schumacher: 40 1.2283506879790393
A3:crash: 43 1.6465180869210023
A4:performance: 41 1.357112650831543
A3:mushroom: 42 1.4146629652145315
A7:toyota:mushroom: 42 1.5496691210747902
A2:ferarri: 42 1.4516195728068346
A6:75%: 40 1.2462242105001295
A7:toyota:schumacher: 41 1.3260756315117015
A4:low-profile: 40 1.2365214090287577
A7:humvee:anakin: 41 1.3031499357576146
A2:toyota: 40 1.1959242428626962
A7:toyota:crash: 41 1.3989346251314119
1224
A3:crash
Heuristic 1 used.
Step 4: performing A1
	Sampled move distance=5
	Next State: [ Pos=6 | Car=mazda | Driver=stig | Tire=ALL_TERRAIN | Pressure=100% | Fuel=26 ]

A7:ferarri:anakin: 36 0.9693008335042634
A7:ferarri:mushroom: 36 1.0561842742744056
A2:ferarri: 37 1.124273367797649
A2:toyota: 38 1.416401689564788
A7:toyota:anakin: 39 1.5998912939559569
A7:toyota:crash: 37 1.2286603060427135
A7:go-kart:mushroom: 38 1.3133615581128002
A7:go-kart:crash: 38 1.3832620722138291
A3:anakin: 36 0.9436690473552125
A4:performance: 38 1.4118423030908491
A7:humvee:mushroom: 37 1.275808664559396
A7:humvee:schumacher: 37 1.2749273553249685
A6:50%: 37 1.2063923616944279
A7:ferarri:crash: 36 0.9953252052982529
A7:go-kart:anakin: 38 1.470746288562441
A4:low-profile: 38 1.3613807595985434
A6:75%: 38 1.512980659637984
A7:go-kart:schumacher: 37 1.2146611263503169
A1: 39 1.4882260667356306
A5:24: 37 1.1282047295239155
A2:humvee: 37 1.1739037067036326
A7:humvee:anakin: 38 1.3830370621688632
A3:schumacher: 37 1.0805197948403726
A3:crash: 36 1.0833764361274916
A7:humvee:crash: 37 1.1675178355963376
A7:toyota:mushroom: 37 1.1516485317006464
A2:go-kart: 38 1.3455705093695418
A7:ferarri:schumacher: 36 1.0542206243837449
A7:toyota:schumacher: 37 1.2235602258554403
A3:mushroom: 38 1.3599769354329891
1118
A7:toyota:anakin
Heuristic 1 used.
Step 5: performing A1
	Sampled move distance=5
	Next State: [ Pos=11 | Car=mazda | Driver=stig | Tire=ALL_TERRAIN | Pressure=100% | Fuel=21 ]

A7:humvee:crash: 36 1.3782970366072198
A7:ferarri:schumacher: 34 1.127968507800184
A2:toyota: 36 1.5422916698596114
A3:anakin: 34 1.128822732557822
A7:go-kart:crash: 35 1.1994280574531775
A7:humvee:schumacher: 36 1.41373463926574
A3:mushroom: 35 1.285161019157863
A5:29: 37 1.7005006777759264
A7:ferarri:anakin: 34 0.9331775030624585
A3:crash: 35 1.3697729082115973
A7:ferarri:crash: 36 1.4597551947865568
A7:go-kart:schumacher: 36 1.5789405789297888
A4:low-profile: 36 1.4141857958678141
A7:humvee:mushroom: 34 1.0719216309576596
A7:toyota:anakin: 38 1.8226395515181262
A4:performance: 37 1.7713874401893734
A7:go-kart:anakin: 34 1.120195821028657
A7:go-kart:mushroom: 35 1.2772237383039469
A2:ferarri: 35 1.284002494343657
A6:50%: 36 1.5368024842753212
A7:toyota:crash: 34 1.1475262580061492
A2:humvee: 36 1.3974639344635926
A4:mud: 42 2.6995351027752283
A6:75%: 35 1.1507531563069087
A2:go-kart: 36 1.6034401444372188
A7:humvee:anakin: 35 1.3147942516281144
A7:ferarri:mushroom: 34 0.8977346322441973
A1: 37 1.8212910003559741
A7:toyota:schumacher: 34 1.150856670673043
A3:schumacher: 38 1.8483113219990883
A7:toyota:mushroom: 35 1.236100416574351
1105
A4:mud
Heuristic 1 used.
Step 6: performing A1
	Sampled move distance=2
	Next State: [ Pos=13 | Car=mazda | Driver=stig | Tire=ALL_TERRAIN | Pressure=100% | Fuel=20 ]

A1: 33 1.0024870990377819
A2:ferarri: 35 1.4037808883416916
A7:ferarri:crash: 36 1.4813093678452005
A7:ferarri:schumacher: 35 1.4214601832336826
A3:mushroom: 34 1.2342808678636512
A5:30: 35 1.4929103530635928
A6:75%: 37 1.7415143769110408
A4:performance: 38 1.9931018011557269
A7:go-kart:anakin: 39 2.1404246161500793
A7:toyota:schumacher: 36 1.6821293958297758
A7:humvee:anakin: 35 1.2691852300214157
A7:toyota:anakin: 38 2.048853140427725
A7:ferarri:mushroom: 35 1.264302344452683
A7:go-kart:mushroom: 36 1.6719838758652754
A4:low-profile: 34 1.118409167332779
A7:toyota:mushroom: 36 1.6921149266221476
A7:humvee:schumacher: 36 1.5671953063059432
A7:humvee:mushroom: 33 0.8272186709832738
A7:go-kart:schumacher: 36 1.576664139856371
A2:go-kart: 35 1.282750009841756
A2:toyota: 36 1.526179387550272
A6:50%: 36 1.538330931939378
A2:humvee: 36 1.5798504550386865
A3:schumacher: 34 1.2318660270642312
A3:anakin: 35 1.274101209716986
A7:ferarri:anakin: 36 1.4867156999867281
A3:crash: 36 1.616442404140959
A7:humvee:crash: 38 1.9055322343404821
A7:toyota:crash: 35 1.462700884320817
A7:go-kart:crash: 36 1.693795236289649
1070
A7:go-kart:anakin
Heuristic 1 used.
Step 7: performing A1
	Sampled move distance=-1
	Next State: [ Pos=12 | Car=mazda | Driver=stig | Tire=ALL_TERRAIN | Pressure=100% | Fuel=15 ]

A7:ferarri:anakin: 30 1.2720009674866968
A5:35: 30 1.2874725816730501
A7:humvee:crash: 30 1.3268684654517064
A3:schumacher: 30 1.3108707745618844
A7:toyota:schumacher: 30 1.3587317127191423
A7:go-kart:anakin: 32 1.834027714519875
A2:go-kart: 33 2.1641170372185363
A7:toyota:mushroom: 31 1.719546751913397
A7:go-kart:mushroom: 30 1.4914754916823405
A7:go-kart:crash: 33 2.095866248801894
A2:ferarri: 30 1.3481284232838904
A2:toyota: 30 1.4477307994725142
A4:performance: 32 1.8698695676004908
A7:ferarri:crash: 28 0.9030342215779744
A4:low-profile: 31 1.5159647311642217
A7:ferarri:schumacher: 30 1.400373800438823
A7:toyota:anakin: 29 1.194386240396344
A3:crash: 29 1.0655344165044072
A1: 32 1.8080557651998947
A6:50%: 31 1.751790961474015
A2:humvee: 29 1.2307905183876513
A7:humvee:mushroom: 30 1.4317622832545436
A7:humvee:schumacher: 31 1.5146633787756327
A7:go-kart:schumacher: 32 1.8407175511173457
A7:humvee:anakin: 31 1.7951863787371714
A3:anakin: 30 1.4707317044399053
A7:ferarri:mushroom: 28 0.8514227714477804
A3:mushroom: 30 1.4097475669117912
A7:toyota:crash: 31 1.598377739930328
A6:75%: 30 1.3467392959802156
913
A2:go-kart
Heuristic 1 used.
Step 8: performing A1
	Sampled move distance=-1
	Next State: [ Pos=11 | Car=mazda | Driver=stig | Tire=ALL_TERRAIN | Pressure=100% | Fuel=11 ]

A7:toyota:crash: 34 1.343827627962791
A7:ferarri:anakin: 31 0.7410176989911718
A2:ferarri: 33 1.1183558936830365
A3:schumacher: 34 1.4148528921112302
A7:ferarri:crash: 34 1.5207929444680515
A6:50%: 33 1.3299983187554965
A7:ferarri:mushroom: 32 1.0067593299738269
A7:toyota:mushroom: 33 1.1907024276362643
A7:humvee:mushroom: 31 0.8532518698179291
A2:go-kart: 35 1.709553722443082
A7:ferarri:schumacher: 35 1.7602405760741804
A7:toyota:anakin: 34 1.4859823283937998
A6:75%: 33 1.338084686855918
A2:toyota: 35 1.5872382123693476
A4:low-profile: 32 1.1039083008315023
A3:anakin: 33 1.1425714976073589
A2:humvee: 32 0.8946965416831799
A7:go-kart:schumacher: 34 1.519309544155098
A4:mud: 37 2.019862086951927
A7:go-kart:crash: 33 1.1435988092999503
A3:mushroom: 33 1.2475331023721725
A7:go-kart:mushroom: 33 1.171889965968727
A3:crash: 34 1.5766753206422581
A4:performance: 35 1.6469589251417944
A7:go-kart:anakin: 32 1.1183599001792963
A1: 35 1.661034464868706
A7:humvee:anakin: 34 1.3865163912590692
A5:39: 35 1.8226454560816214
A7:humvee:schumacher: 33 1.3564577677318912
A7:toyota:schumacher: 34 1.4558144348518764
A7:humvee:crash: 34 1.4515937396527454
1040
A4:mud
Heuristic 1 used.
Step 9: performing A1
	Sampled move distance=-1
	Next State: [ Pos=10 | Car=mazda | Driver=stig | Tire=ALL_TERRAIN | Pressure=100% | Fuel=10 ]

A7:toyota:anakin: 30 1.351136117982344
A2:humvee: 29 1.1443533383626363
A2:ferarri: 28 1.0475705537198585
A4:performance: 30 1.4224370808516014
A7:go-kart:anakin: 29 1.1131934260174032
A3:schumacher: 29 1.2855495602286031
A4:low-profile: 28 1.0128162775931522
A7:ferarri:anakin: 29 1.3079782093639414
A7:humvee:anakin: 28 0.9440336768661165
A7:go-kart:crash: 30 1.538593410464817
A2:toyota: 29 1.097098229960213
A6:50%: 29 1.1887690506506814
A7:ferarri:mushroom: 27 0.6741400266029045
A4:mud: 32 2.0800424651086873
A3:anakin: 30 1.5895422063078994
A7:humvee:crash: 30 1.4513813385298773
A7:go-kart:schumacher: 29 1.0769515404515202
A7:toyota:mushroom: 30 1.590888766011738
A7:humvee:schumacher: 28 0.8415273946598539
A1: 29 1.1593227011758758
A6:75%: 29 1.2627280464515918
A7:ferarri:crash: 28 0.9661169426219799
A3:crash: 30 1.558892653552426
A5:40: 30 1.649650280556167
A3:mushroom: 28 0.8044803843933471
A7:toyota:schumacher: 30 1.4787768046594618
A7:ferarri:schumacher: 29 1.2959422216341228
A7:humvee:mushroom: 28 1.0280934151548442
A7:toyota:crash: 28 1.0057691894748781
A2:go-kart: 30 1.4584125304807747
A7:go-kart:mushroom: 31 1.7170465975095064
904
A4:mud
Heuristic 1 used.
Step 10: performing A1
	Sampled move distance=-1
	Next State: [ Pos=9 | Car=mazda | Driver=stig | Tire=ALL_TERRAIN | Pressure=100% | Fuel=7 ]

A2:ferarri: 34 1.159063038435505
A2:go-kart: 35 1.332660137077041
A5:43: 35 1.4533021685592098
A4:low-profile: 33 1.006649725111831
A7:toyota:anakin: 35 1.260483219933297
A1: 37 1.723051990899947
A7:toyota:crash: 35 1.4833141548127653
A7:go-kart:anakin: 34 1.1408278872162596
A6:75%: 35 1.2741001302012371
A3:mushroom: 33 0.9263755207188336
A7:go-kart:schumacher: 34 1.2447816618689458
A7:toyota:mushroom: 33 0.8632961604267123
A3:schumacher: 34 1.0788886744714528
A2:toyota: 34 1.2760082221145497
A7:ferarri:anakin: 33 1.0269861494806498
A7:go-kart:mushroom: 35 1.3231245231272395
A4:performance: 37 1.823540496195714
A2:humvee: 35 1.3474886287492658
A6:50%: 34 1.0860167044627393
A7:humvee:crash: 35 1.3222117561652398
A7:humvee:schumacher: 35 1.268715622674862
A7:ferarri:mushroom: 33 0.9842267494922017
A3:crash: 34 1.05336146136487
A4:mud: 36 1.5350222732317254
A7:ferarri:schumacher: 36 1.4942494604247367
A7:go-kart:crash: 35 1.3122079436100405
A3:anakin: 35 1.4786067463196655
A7:ferarri:crash: 34 1.2363541461598688
A7:humvee:anakin: 33 0.818402357138766
A7:toyota:schumacher: 35 1.3679829573782316
A7:humvee:mushroom: 33 0.85358885986718
1069
A4:performance
Heuristic 1 used.
Step 11: performing A1
	Sampled move distance=-1
	Next State: [ Pos=8 | Car=mazda | Driver=stig | Tire=ALL_TERRAIN | Pressure=100% | Fuel=5 ]

A7:humvee:schumacher: 36 1.153699835908754
A7:humvee:mushroom: 35 0.9986027433711945
A3:mushroom: 37 1.3107468573994345
A7:toyota:anakin: 39 1.7801463017687615
A7:go-kart:anakin: 39 1.7479117199406284
A3:schumacher: 36 1.0579551838566958
A7:ferarri:crash: 38 1.5252665881530671
A2:ferarri: 38 1.6112867864604692
A2:humvee: 38 1.4779210512028609
A7:toyota:mushroom: 38 1.53021790836352
A7:toyota:schumacher: 37 1.3840105505679825
A3:anakin: 37 1.2762114159310325
A7:ferarri:schumacher: 36 1.1754420703839337
A4:low-profile: 37 1.310032826941849
A3:crash: 36 1.1947539899091337
A1: 39 1.7084674174182966
A7:humvee:anakin: 38 1.638228718003167
A7:ferarri:anakin: 36 1.1410653832233983
A7:go-kart:crash: 37 1.2898066613753958
A7:ferarri:mushroom: 37 1.3974297369269522
A7:humvee:crash: 37 1.3963594356342925
A7:toyota:crash: 38 1.4852651630340095
A7:go-kart:schumacher: 36 1.26276818428465
A7:go-kart:mushroom: 38 1.5016051153372245
A2:toyota: 35 1.0195052746363122
A6:50%: 38 1.6808598183226064
A2:go-kart: 38 1.5612011413404814
A6:75%: 36 1.2060701456885023
A5:45: 37 1.3402048579479982
A4:performance: 38 1.6721832938579075
1115
A7:toyota:anakin
Heuristic 1 used.
Step 12: performing A1
	Sampled move distance=-1
	Next State: [ Pos=7 | Car=mazda | Driver=stig | Tire=ALL_TERRAIN | Pressure=100% | Fuel=1 ]

A3:anakin: 37 1.1190290237146236
A2:toyota: 38 1.3201317220034416
A4:performance: 39 1.5490519608603532
A7:toyota:anakin: 37 1.2774675570388478
A7:humvee:crash: 37 1.257268672763323
A7:ferarri:crash: 37 1.1950525855259022
A2:ferarri: 36 1.0730195075824123
A4:mud: 40 1.7965198187127627
A6:75%: 40 1.7070188560433948
A7:ferarri:anakin: 38 1.3603074934236763
A7:ferarri:mushroom: 37 1.2344414721746653
A7:go-kart:schumacher: 38 1.3461032271650566
A7:ferarri:schumacher: 38 1.4209476310307518
A7:humvee:mushroom: 36 0.922999241476173
A7:humvee:schumacher: 37 1.1935339683491912
A3:mushroom: 37 1.2353484176543792
A7:go-kart:mushroom: 37 1.212591636728214
A7:toyota:schumacher: 39 1.6111031608033257
A2:humvee: 38 1.328218978675521
A7:toyota:crash: 38 1.2708794366819423
A7:toyota:mushroom: 37 1.2294004318403717
A4:low-profile: 36 1.067163059729034
A6:50%: 38 1.4628691949885497
A3:schumacher: 38 1.3736145189801883
A7:go-kart:crash: 38 1.4463465256161852
A7:go-kart:anakin: 38 1.2761208132104023
A3:crash: 36 0.9445115413948442
A5:49: 36 1.0026198510736999
A2:go-kart: 37 1.260846635683678
A7:humvee:anakin: 38 1.4265585371877194
1126
A4:mud
Step 13: performing A4
	Next State: [ Pos=7 | Car=mazda | Driver=stig | Tire=MUD | Pressure=100% | Fuel=1 ]

A3:mushroom: 44 1.6179399701353783
A4:performance: 44 1.6338116246916103
A3:schumacher: 46 2.061486726212522
A3:crash: 43 1.5759800951067175
A4:all-terrain: 41 1.266331323840452
A7:ferarri:crash: 46 2.017240685642999
A2:go-kart: 45 1.9257307269449881
A6:75%: 44 1.6473933991283929
A3:anakin: 46 1.9086028331895002
A7:ferarri:schumacher: 43 1.5587016620669383
A7:toyota:mushroom: 44 1.7831571278039464
A7:humvee:schumacher: 44 1.6024560759172202
A7:humvee:mushroom: 42 1.2793469991958872
A7:toyota:crash: 45 1.9199033379170052
A4:low-profile: 41 1.2120819975199886
A7:go-kart:anakin: 44 1.630498852878809
A7:go-kart:crash: 45 1.8244537318996348
A7:toyota:schumacher: 42 1.3295047288176047
A7:ferarri:mushroom: 43 1.490559953504998
A2:humvee: 43 1.4469770861531142
A7:toyota:anakin: 48 2.268671994229209
A2:toyota: 46 1.9978398131866302
A2:ferarri: 41 1.258225078009827
A6:50%: 44 1.7786630976924562
A7:humvee:anakin: 41 1.2645363856999525
A7:go-kart:schumacher: 43 1.547695733916501
A7:go-kart:mushroom: 44 1.724386477464715
A7:ferarri:anakin: 41 1.234444311413821
A5:49: 46 2.0584296024048045
A7:humvee:crash: 46 1.994364818438467
1315
A7:toyota:anakin
Step 14: performing A7
	Next State: [ Pos=7 | Car=toyota | Driver=anakin | Tire=MUD | Pressure=100% | Fuel=50 ]

A2:humvee: 36 1.089547959138003
A7:go-kart:crash: 38 1.451183358008628
A2:ferarri: 38 1.4320324012138677
A3:stig: 42 2.175841927358718
A7:go-kart:stig: 44 2.5641690817571305
A6:50%: 45 2.7328453022823678
A7:mazda:schumacher: 40 1.9484622233343725
A1: 40 1.8757000000430462
A7:humvee:crash: 41 2.01406404213279
A2:go-kart: 41 1.9742658110280387
A7:humvee:stig: 37 1.211610136565216
A7:ferarri:schumacher: 39 1.6946991792680837
A4:performance: 44 2.643857401577871
A3:crash: 41 2.0511483678664466
A6:75%: 44 2.5936218558570094
A7:mazda:stig: 41 2.0855969384324218
A4:all-terrain: 39 1.6518322608706877
A7:mazda:mushroom: 38 1.5572822828980832
A3:schumacher: 38 1.5269517325718516
A3:mushroom: 39 1.8000158140343991
A4:low-profile: 39 1.7929411861676436
A7:humvee:schumacher: 39 1.5997606986895558
A7:humvee:mushroom: 37 1.1754568601082058
A7:mazda:crash: 40 1.8161237408737736
A7:go-kart:schumacher: 38 1.5421301194366968
A7:go-kart:mushroom: 40 1.8387682757956962
A7:ferarri:mushroom: 36 0.9650207278910151
A2:mazda: 39 1.7788826333870251
A7:ferarri:stig: 36 1.148699152753215
A7:ferarri:crash: 40 1.932876828602313
1189
A6:50%
Heuristic 1 used.
Step 15: performing A1
	Sampled move distance=4
	Next State: [ Pos=11 | Car=toyota | Driver=anakin | Tire=MUD | Pressure=100% | Fuel=47 ]

A7:mazda:crash: 40 1.652771070267629
A3:schumacher: 38 1.3055750248501208
A2:mazda: 39 1.4529305927624934
A7:go-kart:schumacher: 38 1.373504027670092
A7:ferarri:crash: 41 1.8826573939462625
A3:mushroom: 42 2.162304263138207
A4:performance: 46 2.7950365159286066
A7:humvee:crash: 37 1.1171878969001905
A7:go-kart:stig: 41 1.997452135029409
A7:ferarri:schumacher: 40 1.7592521278211595
A7:humvee:mushroom: 37 1.19525348756927
A7:mazda:mushroom: 38 1.3195471700479795
A3:stig: 42 2.1213680044734
A6:50%: 42 2.0989529670047578
A7:mazda:schumacher: 39 1.5240753047757123
A7:ferarri:mushroom: 39 1.473874759393207
A1: 43 2.307331332768059
A2:go-kart: 41 1.8395969337647597
A2:humvee: 36 0.9775940025147452
A6:75%: 40 1.7195513820578587
A7:ferarri:stig: 38 1.2502248215004241
A7:go-kart:mushroom: 38 1.46501553027866
A4:all-terrain: 38 1.441479590590817
A7:humvee:schumacher: 37 1.0867431412931516
A7:humvee:stig: 37 1.055360632082668
A3:crash: 41 1.9507806294272008
A4:low-profile: 39 1.6000973650956034
A5:3: 41 1.9069419202995974
A2:ferarri: 37 1.1251029383624278
A7:mazda:stig: 39 1.6248442190734023
A7:go-kart:crash: 41 1.87636068464752
1225
A4:performance
Heuristic 1 used.
Step 16: performing A1
	Sampled move distance=SLIP
	Next State: [ Pos=11 | Car=toyota | Driver=anakin | Tire=MUD | Pressure=100% | Fuel=42 ]

A3:stig: 37 1.661686410231807
A7:mazda:stig: 39 2.173497060210107
A7:ferarri:mushroom: 34 1.0971898497262225
A4:all-terrain: 35 1.340619721911508
A7:humvee:schumacher: 35 1.4037758372203084
A2:mazda: 36 1.4259652095178443
A3:mushroom: 38 1.86969855787683
A7:ferarri:crash: 38 1.8501877681488674
A1: 42 2.7678230809708504
A7:humvee:crash: 34 1.0692108015704416
A7:go-kart:schumacher: 35 1.202667080375016
A7:go-kart:crash: 39 2.102878796049817
A4:low-profile: 37 1.7947569022776075
A3:schumacher: 36 1.6373880574892288
A6:50%: 38 1.8360258878803999
A7:ferarri:schumacher: 35 1.3007791331062413
A7:go-kart:stig: 39 2.226607700509566
A7:mazda:schumacher: 34 1.1479596836594772
A7:humvee:stig: 35 1.2725081222640293
A7:mazda:mushroom: 36 1.4515631510092422
A7:mazda:crash: 35 1.3615816174164803
A6:75%: 35 1.363854364783986
A2:go-kart: 39 2.177822805343149
A4:performance: 37 1.7650852875398666
A5:8: 41 2.4516340418578477
A7:go-kart:mushroom: 37 1.6254009505618567
A7:ferarri:stig: 34 1.173753469125667
A2:ferarri: 35 1.3059888767660948
A2:humvee: 35 1.3048830968122684
A3:crash: 40 2.281276883559459
A7:humvee:mushroom: 34 1.1118331048813566
1134
A1
Step 18: performing A1
	Sampled move distance=4
	Next State: [ Pos=15 | Car=toyota | Driver=anakin | Tire=MUD | Pressure=100% | Fuel=37 ]

A7:go-kart:stig: 55 2.7917383226516836
A7:go-kart:mushroom: 51 2.1308874958973782
A3:stig: 54 2.5574650104378343
A4:all-terrain: 48 1.8223842915619075
A7:go-kart:crash: 50 2.0111422523521822
A7:humvee:crash: 46 1.4905405253298354
A7:humvee:mushroom: 41 0.5751976571557267
A7:ferarri:schumacher: 47 1.6188165392692728
A7:ferarri:stig: 46 1.555436202580902
A7:humvee:schumacher: 47 1.6757111228515265
A2:ferarri: 44 1.193449089897875
A2:humvee: 44 1.1714333935592953
A3:crash: 50 2.047674315140525
A4:performance: 57 3.016399055955606
A6:50%: 57 2.890378012337695
A3:schumacher: 48 1.7243107463866671
A7:ferarri:mushroom: 43 1.0831209244178905
A7:mazda:crash: 48 1.7495169741536423
A5:13: 49 1.9920580288613423
A7:mazda:mushroom: 48 1.8174433000736885
A1: 51 2.197421621263632
A7:mazda:stig: 53 2.554934183471469
A2:go-kart: 45 1.4368090057429779
A7:mazda:schumacher: 50 2.0514427275892846
A7:go-kart:schumacher: 45 1.3840415178964292
A3:mushroom: 50 2.0658827685836005
A4:low-profile: 48 1.7605251547000036
A2:mazda: 45 1.3852088914461338
A7:humvee:stig: 45 1.2892734275765254
A6:75%: 52 2.2915709958556496
A7:ferarri:crash: 48 1.758213209410851
1505
A4:performance
Heuristic 1 used.
Step 19: performing A1
	Sampled move distance=-2
	Next State: [ Pos=13 | Car=toyota | Driver=anakin | Tire=MUD | Pressure=100% | Fuel=32 ]

A7:mazda:mushroom: 45 2.3105221538931837
A2:go-kart: 49 2.9178268073330043
A7:ferarri:mushroom: 42 1.8715202870112984
A2:humvee: 43 1.9581163582616605
A6:50%: 45 2.2643897889965325
A3:schumacher: 41 1.6785739295660247
A7:humvee:mushroom: 40 1.5530154711990225
A7:go-kart:schumacher: 43 2.0475099563958925
A4:low-profile: 40 1.4194172501993871
A7:go-kart:crash: 48 2.799444581359174
A7:mazda:schumacher: 42 1.80804629708352
A7:humvee:stig: 42 1.7469100738219205
A7:mazda:crash: 46 2.501450084914279
A4:performance: 44 2.1489010637209756
A7:mazda:stig: 47 2.6404647439836664
A5:18: 45 2.401425044136753
A7:go-kart:mushroom: 42 1.83705443889929
A6:75%: 49 2.9110186047265434
A7:humvee:schumacher: 41 1.7547676099121479
A3:mushroom: 45 2.263381547242889
A4:all-terrain: 40 1.5665535429233388
A3:crash: 47 2.5622613912356162
A2:mazda: 46 2.5034596946942274
A7:ferarri:schumacher: 41 1.5667023000075042
A1: 47 2.721497871361463
A7:go-kart:stig: 46 2.5147922216655947
A7:ferarri:stig: 38 1.1766170744358788
A7:humvee:crash: 42 1.856775936015211
A2:ferarri: 45 2.2605550631158673
A7:ferarri:crash: 44 2.2318761516987227
A3:stig: 46 2.544879854010459
1361
A2:go-kart
Heuristic 1 used.
Step 20: performing A1
	Sampled move distance=-3
	Next State: [ Pos=10 | Car=toyota | Driver=anakin | Tire=MUD | Pressure=100% | Fuel=27 ]

A2:go-kart: 35 1.051086030472508
A7:go-kart:mushroom: 37 1.2660112359202556
A2:humvee: 35 0.8299548438598908
A2:ferarri: 35 0.9066078277379974
A1: 38 1.610800809867985
A3:stig: 37 1.4864466406740302
A3:schumacher: 37 1.333286813100111
A7:humvee:crash: 39 1.847486020588051
A4:all-terrain: 37 1.2616585574164452
A7:ferarri:stig: 36 1.0946597224696581
A7:humvee:schumacher: 35 0.9838495600599689
A4:low-profile: 36 1.261346361344512
A4:performance: 40 2.036565879634149
A5:23: 36 1.2670967181582315
A7:mazda:mushroom: 37 1.3803095826365328
A7:mazda:crash: 36 1.2109651283758327
A7:humvee:mushroom: 34 0.8104870659801174
A7:go-kart:stig: 38 1.688934331670076
A3:mushroom: 40 1.9429184891467906
A7:go-kart:schumacher: 38 1.5683336266687127
A7:ferarri:crash: 34 0.823084385746599
A7:humvee:stig: 35 0.940887288316214
A6:75%: 37 1.4161545347125084
A7:ferarri:schumacher: 36 1.2432687199150934
A6:50%: 39 1.8285122252146828
A7:ferarri:mushroom: 35 0.8326203797366494
A7:mazda:schumacher: 38 1.572474214204003
A7:go-kart:crash: 42 2.2595230222655585
A3:crash: 41 2.0698110812115074
A7:mazda:stig: 39 1.8691105790470686
A2:mazda: 36 1.0453270875535408
1148
A7:go-kart:crash
Heuristic 1 used.
Step 21: performing A1
	Sampled move distance=SLIP
	Next State: [ Pos=10 | Car=toyota | Driver=anakin | Tire=MUD | Pressure=100% | Fuel=22 ]

A1: 45 2.0383346572991012
A5:28: 44 1.9211033548195073
A4:all-terrain: 41 1.3403286505578538
A2:ferarri: 40 1.070636238937726
A7:go-kart:mushroom: 40 1.1958696894704182
A7:mazda:stig: 42 1.4945013369307627
A7:humvee:stig: 39 1.0437662906864162
A7:mazda:crash: 40 1.2341723348322624
A7:ferarri:schumacher: 39 1.0361251620868532
A4:performance: 43 1.6548590734646693
A7:ferarri:mushroom: 38 0.6749576357250237
A2:mazda: 40 1.0870369724134745
A3:mushroom: 42 1.4856505282288974
A7:ferarri:stig: 39 1.0053524327930983
A7:humvee:crash: 40 1.133375077716579
A7:mazda:schumacher: 42 1.485467936679786
A7:humvee:schumacher: 40 1.1021077725250072
A7:go-kart:stig: 44 1.8734509087599378
A7:go-kart:crash: 42 1.5918973601175248
A4:low-profile: 40 1.14574182550439
A3:schumacher: 40 1.0301100403745846
A7:go-kart:schumacher: 40 1.1667934436984653
A6:75%: 43 1.7193293499610982
A6:50%: 40 1.2157899260412648
A7:ferarri:crash: 41 1.2652504799267084
A2:go-kart: 40 1.2310583933970682
A3:stig: 46 2.094846224668757
A3:crash: 43 1.591845355507293
A7:humvee:mushroom: 38 0.7326673813918045
A2:humvee: 38 0.8187050881405951
A7:mazda:mushroom: 40 1.040390610609144
1269
A3:stig
Heuristic 1 used.
Step 23: performing A1
	Sampled move distance=2
	Next State: [ Pos=12 | Car=toyota | Driver=anakin | Tire=MUD | Pressure=100% | Fuel=17 ]

A5:33: 47 2.00711546734461
A4:low-profile: 45 1.716777347990512
A7:mazda:stig: 49 2.2304980790633517
A7:humvee:crash: 46 1.8688134032639996
A4:all-terrain: 43 1.3910933281206381
A3:schumacher: 45 1.6596877229330516
A7:humvee:stig: 42 1.1856517862554867
A7:go-kart:crash: 51 2.496745246441792
A7:ferarri:mushroom: 42 1.1901820692652265
A7:humvee:schumacher: 45 1.6553209126718458
A6:50%: 51 2.4425790423831097
A7:go-kart:schumacher: 44 1.5404962064512844
A7:mazda:mushroom: 45 1.7081717522242568
A3:stig: 47 2.0590773325767042
A6:75%: 46 1.9047923336780754
A3:mushroom: 48 2.1568796301156206
A7:ferarri:stig: 43 1.2958005543403293
A7:go-kart:mushroom: 48 2.0418567002095656
A3:crash: 47 2.055907476692665
A2:go-kart: 47 2.0158911510436415
A7:ferarri:crash: 48 2.1101721709606687
A7:ferarri:schumacher: 46 1.9035515071619666
A7:humvee:mushroom: 42 1.2539044027969326
A1: 53 2.7232006490916567
A2:humvee: 43 1.4001197608623903
A4:performance: 48 2.178341510294909
A7:mazda:crash: 45 1.5933582866859897
A7:go-kart:stig: 49 2.3095652989267483
A2:ferarri: 45 1.6860561815317285
A7:mazda:schumacher: 44 1.4764843294352155
A2:mazda: 48 2.1836237888983248
1432
A1
Step 24: performing A1
	Sampled move distance=5
	Next State: [ Pos=17 | Car=toyota | Driver=anakin | Tire=MUD | Pressure=100% | Fuel=16 ]

A7:humvee:schumacher: 50 1.7052193883613784
A7:go-kart:mushroom: 53 2.0613011480267174
A6:75%: 54 2.1066498564327047
A7:ferarri:schumacher: 51 1.7910812570315437
A2:go-kart: 54 2.2243099025040287
A7:humvee:mushroom: 50 1.668989454244211
A3:schumacher: 56 2.4374403816246035
A4:performance: 59 2.732543401204635
A2:mazda: 45 0.8524926148050276
A2:humvee: 46 0.9992058172350408
A3:mushroom: 56 2.331287804716014
A7:go-kart:crash: 57 2.5478066259340424
A3:crash: 51 1.8353637796918572
A7:humvee:stig: 45 0.9599145496510949
A2:ferarri: 48 1.347484481235555
A7:mazda:crash: 53 2.0132367366557724
A7:mazda:stig: 56 2.4291246317686124
A7:mazda:mushroom: 50 1.617987988956004
A7:go-kart:schumacher: 56 2.4329045743441022
A7:mazda:schumacher: 51 1.7391520753633547
A3:stig: 57 2.513413152819908
A7:ferarri:crash: 57 2.440942957627873
A6:50%: 56 2.4337534917166543
A5:34: 51 1.8339352462770548
A4:all-terrain: 54 2.1953858627835725
A1: 61 2.963781734304393
A4:low-profile: 51 1.7473170995745253
A7:ferarri:stig: 53 2.034700304120254
A7:ferarri:mushroom: 46 1.1360015278954745
A7:humvee:crash: 50 1.677295912720437
A7:go-kart:stig: 57 2.5392738536003527
1634
A1
Step 25: performing A1
	Sampled move distance=-4
	Next State: [ Pos=13 | Car=toyota | Driver=anakin | Tire=MUD | Pressure=100% | Fuel=11 ]

A7:humvee:mushroom: 52 1.5198462768810437
A2:humvee: 52 1.5460185381713623
A7:go-kart:mushroom: 54 1.798450669275145
A2:mazda: 59 2.3452138250018773
A4:all-terrain: 53 1.642510372369817
A3:stig: 57 2.120491111494627
A3:mushroom: 58 2.2128845520177918
A4:low-profile: 53 1.6149257080218626
A7:ferarri:schumacher: 52 1.4516144187052535
A7:ferarri:crash: 55 1.843719492736145
A7:mazda:mushroom: 55 1.8478440506738976
A7:mazda:schumacher: 53 1.5939607786905263
A7:mazda:crash: 53 1.644094612517223
A7:humvee:schumacher: 54 1.731682245933573
A7:go-kart:crash: 59 2.3821150405447864
A3:schumacher: 51 1.3525991508045991
A7:ferarri:mushroom: 50 1.2991349410284576
A7:go-kart:schumacher: 52 1.512669367060424
A4:performance: 54 1.772815869928886
A7:humvee:crash: 58 2.1484094476879463
A7:go-kart:stig: 60 2.406155194254083
A2:ferarri: 57 2.07960872454004
A6:50%: 56 1.9265478499986108
A5:39: 57 2.1171768465527996
A1: 57 2.0592866745981873
A7:ferarri:stig: 54 1.7509838054967457
A7:humvee:stig: 50 1.2332147687874697
A2:go-kart: 56 1.9824541208842048
A7:mazda:stig: 56 2.0182738268631173
A6:75%: 55 1.7937249427533226
A3:crash: 55 1.9100580379022272
1697
A7:go-kart:stig
Heuristic 1 used.
Step 26: performing A1
	Sampled move distance=4
	Next State: [ Pos=17 | Car=toyota | Driver=anakin | Tire=MUD | Pressure=100% | Fuel=6 ]

A2:mazda: 57 1.5985005826739027
A5:44: 64 2.37214310685456
A6:50%: 57 1.6344801620209088
A7:mazda:crash: 62 2.1823012953721976
A2:go-kart: 61 2.0604943541245233
A7:mazda:stig: 62 2.1481715289337764
A7:ferarri:crash: 56 1.546193071885542
A6:75%: 60 2.034256123804197
A7:humvee:mushroom: 51 0.9661596600121576
A4:all-terrain: 56 1.5902205321685128
A7:mazda:schumacher: 57 1.6093523502207765
A7:humvee:stig: 56 1.5095014798762232
A7:ferarri:mushroom: 58 1.768198764379132
A7:mazda:mushroom: 54 1.322057638068613
A4:performance: 66 2.564783200777227
A3:stig: 59 1.9481560368219824
A7:humvee:schumacher: 56 1.5163421067979126
A7:go-kart:mushroom: 55 1.4301119629656345
A2:humvee: 56 1.4867616053287669
A7:go-kart:stig: 60 1.9369030146543382
A7:ferarri:schumacher: 56 1.5527746577053338
A3:crash: 60 2.0433313782271485
A7:go-kart:schumacher: 60 1.9921379913279513
A7:ferarri:stig: 52 1.0966019204773008
A3:mushroom: 56 1.5213948105722321
A1: 77 3.455885839622481
A4:low-profile: 56 1.6022692176902744
A3:schumacher: 64 2.4468869205390886
A7:humvee:crash: 53 1.2228414174812228
A7:go-kart:crash: 57 1.706229833986943
A2:ferarri: 52 0.9824810084114783
1806
A1
Step 27: performing A1
	Sampled move distance=5
	Next State: [ Pos=22 | Car=toyota | Driver=anakin | Tire=MUD | Pressure=100% | Fuel=1 ]

A6:75%: 81 4.198918401772622
A7:ferarri:schumacher: 65 2.8348080993158224
A7:go-kart:stig: 90 4.723362168163941
A7:mazda:stig: 85 4.458619478495294
A7:humvee:crash: 75 3.782065965644093
A4:all-terrain: 63 2.759720954530315
A2:mazda: 84 4.355062651342091
A7:humvee:schumacher: 59 2.300650639814357
A7:humvee:mushroom: 57 2.03672818930784
A7:mazda:crash: 80 4.167639151909219
A7:go-kart:mushroom: 75 3.80710757168487
A4:low-profile: 65 2.8743022280683466
A2:ferarri: 69 3.2761293118895978
A7:mazda:mushroom: 69 3.271215284436445
A2:go-kart: 84 4.410556691142664
A6:50%: 76 3.806398262105945
A7:mazda:schumacher: 67 3.1382608283156803
A2:humvee: 67 3.1264938296834353
A3:mushroom: 73 3.5929791402521927
A7:ferarri:crash: 71 3.4058444695465435
A3:crash: 74 3.660829664974059
A3:schumacher: 65 2.9145397648445224
A7:humvee:stig: 69 3.2628559310605687
A7:go-kart:schumacher: 67 3.0662089229787832
A4:performance: 66 2.9749077735674594
A3:stig: 80 4.129765141292968
A5:49: 74 3.70023361949075
A7:ferarri:mushroom: 62 2.64416344684135
A7:ferarri:stig: 61 2.5730683009208155
A7:go-kart:crash: 80 4.1296753542753715
2153
A7:go-kart:stig
Step 28: performing A7
	Next State: [ Pos=22 | Car=go-kart | Driver=stig | Tire=MUD | Pressure=100% | Fuel=50 ]

A3:schumacher: 58 2.128381765832637
A4:low-profile: 61 2.4345329073046638
A7:humvee:crash: 76 3.7118317558300387
A7:toyota:crash: 87 4.502590980258109
A3:crash: 84 4.275441137270768
A4:all-terrain: 67 2.9966471272542945
A7:ferarri:mushroom: 58 2.1073268047043086
A7:toyota:schumacher: 69 3.209209835095882
A6:50%: 76 3.7141486995772084
A7:mazda:mushroom: 81 4.113780709616187
A7:ferarri:anakin: 69 3.174381339927224
A3:mushroom: 76 3.718451372588188
A3:anakin: 80 4.015318700566344
A7:toyota:anakin: 82 4.132597403142801
A7:mazda:crash: 74 3.550225735569132
A2:toyota: 81 4.108943377947772
A4:performance: 61 2.3727327426278437
A2:ferarri: 65 2.8001642823544945
A7:mazda:schumacher: 74 3.5415748639562694
A7:ferarri:schumacher: 69 3.1182465380212676
A6:75%: 84 4.302065279787099
A7:mazda:anakin: 78 3.8563262573456396
A7:humvee:mushroom: 72 3.3858141259180132
A1: 136 6.5483215485453545
A7:humvee:schumacher: 71 3.2576033683303
A2:mazda: 66 2.943279403983497
A7:ferarri:crash: 74 3.5825078529111214
A7:humvee:anakin: 68 3.0599197915163994
A7:toyota:mushroom: 82 4.168652706727615
A2:humvee: 73 3.4927993233435237
2252
A1
Step 29: performing A1
	Sampled move distance=5
	Next State: [ Pos=27 | Car=go-kart | Driver=stig | Tire=MUD | Pressure=100% | Fuel=49 ]

A7:toyota:schumacher: 8 3.0391224655151383
A2:ferarri: 8 3.021466594407568
A7:toyota:mushroom: 15 12.844513603690181
A7:humvee:anakin: 9 5.573084895592753
A6:50%: 17 13.393849733981076
A2:humvee: 7 0.016384063089602937
A7:ferarri:mushroom: 11 7.032633747581816
A7:ferarri:anakin: 13 10.617899169747732
A3:anakin: 10 7.194724143943107
A2:mazda: 11 7.425647325276754
A7:humvee:schumacher: 11 7.8733192833830685
A4:low-profile: 10 7.084796947500936
A4:performance: 8 3.632083361749145
A7:mazda:anakin: 11 7.722242446458567
A7:ferarri:schumacher: 10 6.338754562813634
A1: 15651 42.90443634372048
A4:all-terrain: 8 3.58828985788138
A2:toyota: 9 5.276764210207727
A7:toyota:anakin: 10 5.597261971411344
A3:crash: 12 9.375481698123938
A7:mazda:schumacher: 13 10.453050625263412
A7:ferarri:crash: 10 7.004612352282007
A7:humvee:mushroom: 9 5.592453362940669
A3:mushroom: 12 9.859258512096284
A7:toyota:crash: 10 5.618529077383262
A7:humvee:crash: 13 9.386045043637406
A7:mazda:crash: 15 12.22819217674057
A7:mazda:mushroom: 9 5.625221944035951
A5:1: 13 11.025791828970837
A3:schumacher: 15 12.097679105763627
A6:75%: 10 7.4535806280758505
15978
A1
Step 30: performing A1
	Sampled move distance=2
	Next State: [ Pos=29 | Car=go-kart | Driver=stig | Tire=MUD | Pressure=100% | Fuel=44 ]

A2:humvee: 8 8.077048578967684
A5:6: 9 11.787296703240607
A2:mazda: 11 14.287484109922907
A7:ferarri:crash: 11 15.137962432503457
A3:schumacher: 11 13.370111837122664
A7:toyota:schumacher: 13 16.40754346586673
A7:toyota:mushroom: 9 10.117888171615743
A7:ferarri:schumacher: 8 7.162528186768982
A7:mazda:crash: 11 14.345908908292627
A7:toyota:crash: 14 19.17247040973566
A4:low-profile: 9 10.668384741620674
A7:humvee:crash: 9 12.165282142401315
A3:mushroom: 9 11.9029362320492
A7:toyota:anakin: 8 8.345034287430378
A4:performance: 8 8.93898925456182
A1: 87299 51.59439496351676
A2:toyota: 10 14.244682677620498
A7:ferarri:anakin: 9 8.93616212005379
A6:50%: 9 9.368429862736384
A7:humvee:schumacher: 8 7.592690582731815
A2:ferarri: 10 12.448783526308103
A7:humvee:anakin: 8 7.859133815418234
A7:mazda:anakin: 8 7.25742520002483
A3:crash: 6 3.0510965868097437
A6:75%: 11 14.8559421526265
A7:ferarri:mushroom: 7 5.465750380595396
A3:anakin: 9 10.811018163804864
A7:mazda:schumacher: 9 10.616500395001708
A7:mazda:mushroom: 10 13.833126243172867
A4:all-terrain: 11 14.9632995083148
A7:humvee:mushroom: 9 10.03583728655044
87581
A1
Step 31: performing A1
	Sampled move distance=5
	Next State: [ Pos=30 | Car=go-kart | Driver=stig | Tire=MUD | Pressure=100% | Fuel=40 ]

Goal reached after 32 steps.
Writing steps to output file
Solved!
