Resetting simulator
Start State: [ Pos=1 | Car=ta | Driver=Ac | Tire=ALL_TERRAIN | Pressure=100% | Fuel=50 ]

A7:yFQ:Dt: 311 2.7344846212535283
A7:om:VK: 9 0.43027915520124727
A7:uJd:qAz: 86 2.310744377099499
A1: 51 2.053400162602292
A7:uJd:VuOnB: 109 2.408945751565212
A4:mud: 8 0.20041514674877967
A7:uJd:VK: 264 2.695602099007589
A7:om:Dt: 145 2.5215085356480778
A7:jXePX:Dt: 133 2.4789440076525335
A7:om:VuOnB: 49 2.0283394548627696
A7:yFQ:qAz: 41 1.8659248064809753
A7:jXePX:VuOnB: 87 2.3091317119509953
A7:uJd:Dt: 1709 3.00321762602406
A6:75%: 12 0.7973383988494102
A4:performance: 9 0.3964857946474029
A6:50%: 10 0.5569346244153717
A7:jXePX:VK: 22 1.4050229313708393
A3:VuOnB: 148 2.525091584259523
A7:yFQ:VK: 172 2.570869221076033
A3:Dt: 75 2.258467332779345
A2:uJd: 110 2.4085689416082863
A3:VK: 84 2.3037613671655346
A3:qAz: 35 1.8045476909468778
A4:low-profile: 7 0.1043173922718349
A7:yFQ:VuOnB: 158 2.5466993618960325
A2:om: 83 2.288532027574024
A7:om:qAz: 41 1.8848411944362915
A2:yFQ: 45 1.94001525430305
4013
A7:uJd:Dt
Step 0: performing A7
	Next State: [ Pos=1 | Car=uJd | Driver=Dt | Tire=ALL_TERRAIN | Pressure=100% | Fuel=50 ]

A3:VK: 61 3.068580274794998
A2:jXePX: 24 2.4301620916874973
A7:yFQ:VuOnB: 46 2.9244301821610152
A2:yFQ: 71 3.1446328738698743
A2:ta: 31 2.6121491021422414
A6:50%: 33 2.708216045422614
A2:om: 25 2.4782977252634115
A6:75%: 35 2.685317225365761
A1: 7751 4.230560669650953
A7:yFQ:VK: 21 2.333529250541328
8098
A1
Step 1: performing A1
	Sampled move distance=3
	Next State: [ Pos=4 | Car=uJd | Driver=Dt | Tire=ALL_TERRAIN | Pressure=100% | Fuel=49 ]

A1: 17261 7.359784103347497
A7:yFQ:VK: 20 3.6151793457817076
A2:ta: 41 4.2544891533743225
A5:1: 42 4.265106530163783
A6:50%: 41 4.27451420089496
A2:yFQ: 42 4.245428800997258
A2:om: 23 3.8664411035034396
A6:75%: 28 3.994942313655158
A2:jXePX: 21 3.732284481950361
A7:yFQ:VuOnB: 43 4.293975322679854
A3:VK: 18 3.473167430093615
17580
A1
Step 2: performing A1
	Sampled move distance=4
	Next State: [ Pos=8 | Car=uJd | Driver=Dt | Tire=ALL_TERRAIN | Pressure=100% | Fuel=45 ]

A6:75%: 53 7.520418339066451
A7:yFQ:VuOnB: 19 6.8432004228410594
A1: 23840 11.99004874991771
A3:VK: 41 7.229319745242932
A2:ta: 2 2.2824282271895404
A2:jXePX: 14 6.243966961765198
A6:50%: 52 7.505017519354703
A2:om: 18 6.673284967844011
A5:5: 20 6.754806331344294
A2:yFQ: 62 7.576400223323193
A7:yFQ:VK: 16 6.442921181545888
24137
A1
Step 3: performing A1
	Sampled move distance=4
	Next State: [ Pos=12 | Car=uJd | Driver=Dt | Tire=ALL_TERRAIN | Pressure=100% | Fuel=44 ]

A3:VK: 1 2.6771885478444544
A7:yFQ:VK: 1 2.1530774052087516
A2:ta: 14 10.872115843318085
A2:jXePX: 1 6.439903156509825
A5:6: 16 11.602643816105992
A6:75%: 14 11.499887136531951
A2:yFQ: 13 11.101048216469183
A2:om: 20 11.753944408797357
A1: 59094 18.8923540325436
A7:yFQ:VuOnB: 4 9.516554826736481
A6:50%: 11 11.26733285442365
59189
A1
Step 4: performing A1
	Sampled move distance=3
	Next State: [ Pos=15 | Car=uJd | Driver=Dt | Tire=ALL_TERRAIN | Pressure=100% | Fuel=40 ]

A2:ta: 17 14.705622356158965
A2:yFQ: 34 15.195740390157562
A6:50%: 19 14.89368401824492
A6:75%: 39 15.283194128053497
A2:jXePX: 1 9.821203070930016
A2:om: 23 15.049096319899522
A5:10: 19 14.46722919220659
A1: 227321 26.143766926423854
A7:yFQ:VuOnB: 5 12.733706880342252
A3:VK: 12 14.051833455926127
A7:yFQ:VK: 4 9.964301744251143
227494
A1
Step 5: performing A1
	Sampled move distance=4
	Next State: [ Pos=19 | Car=uJd | Driver=Dt | Tire=ALL_TERRAIN | Pressure=100% | Fuel=36 ]

A2:jXePX: 57 16.020220400127222
A2:om: 556352 28.087508741378315
A1: 1 1.7913575984725665
A7:yFQ:VuOnB: 61 16.13405582348939
A2:yFQ: 40 15.6458750795653
A6:50%: 48 15.796434664073898
A2:ta: 44 15.726291249011547
A3:VK: 44 15.7779104426475
A5:14: 42 15.961273924318634
A6:75%: 66 16.117630300198368
A7:yFQ:VK: 49 15.898320070269314
556804
A2:om
Step 6: performing A2
	Next State: [ Pos=19 | Car=om | Driver=Dt | Tire=ALL_TERRAIN | Pressure=100% | Fuel=50 ]

A2:jXePX: 4 19.29502748747293
A2:ta: 5 21.91544282979
A7:uJd:VK: 3 20.451799552500002
A2:uJd: 5 19.666512332233985
A4:mud: 1 16.781926730625003
A7:yFQ:VK: 4 22.84952855765625
A6:50%: 3 17.673035308489613
A7:yFQ:VuOnB: 5 20.823768041544774
A4:low-profile: 1340705 36.743490226907575
A6:75%: 6 21.694139872124836
A1: 1 1.1285118346797123
A2:yFQ: 2 15.570288663997145
1340744
A4:low-profile
Step 7: performing A4
	Next State: [ Pos=19 | Car=om | Driver=Dt | Tire=LOW_PROFILE | Pressure=100% | Fuel=50 ]

A4:mud: 1 29.26125
A1: 2579567 48.041726845918205
A6:75%: 1 29.26125
A4:all-terrain: 1 29.26125
A7:yFQ:VK: 1 29.26125
A2:jXePX: 1 29.26125
A6:50%: 1 29.26125
2579573
A1
Step 8: performing A1
	Sampled move distance=3
	Next State: [ Pos=20 | Car=om | Driver=Dt | Tire=LOW_PROFILE | Pressure=100% | Fuel=45 ]

Goal reached after 9 steps.
Writing steps to output file
Solved!
