3
0.95 3 3
30 90
dirt-straight-hilly:1-6
dirt-straight-flat:7-12
dirt-slalom-hilly:13-18
dirt-slalom-flat:19-24
asphalt-straight-hilly:25
asphalt-straight-flat:26
asphalt-slalom-hilly:27
asphalt-slalom-flat:28-30
5
car-the-worst:0 0.05 0.05 0.1 0.2 0.25 0.15 0 0 0 0.1 0.1
car-for-1-6:0 0.05 0.05 0.1 0.2 0.25 0.15 0 0 0 0.1 0.1
car-for-7-12:0 0.05 0.05 0.1 0.2 0.25 0.15 0 0 0 0.1 0.1
car-for-13-18:0 0.05 0.05 0.1 0.2 0.25 0.15 0 0 0 0.1 0.1
car-for-19-24:0 0.05 0.05 0.1 0.2 0.25 0.15 0 0 0 0.1 0.1
5
driver-worst:0.1 0.1 0.15 0.15 0.1 0.05 0 0.05 0.05 0 0.15 0.1
driver-good:0.05 0.05 0.05 0.05 0.1 0.1 0.1 0.1 0.1 0.1 0.1 0.1
driver-best:0 0 0.05 0.05 0.05 0.15 0.15 0.15 0.15 0.1 0.05 0.1
driver-avg1:0.1 0.1 0.1 0.1 0.1 0.05 0.05 0.05 0.05 0.1 0.1 0.1
driver-avg2:0.1 0.1 0.1 0.1 0.1 0.05 0.05 0.05 0.05 0.1 0.1 0.1
all-terrain:0.1 0.15 0.15 0.15 0.1 0.05 0.05 0.05 0 0 0.1 0.1 (worst)
mud:0.1 0.1 0.1 0.1 0.1 0.05 0.05 0.05 0.05 0.1 0.1 0.1 (average)
low-profile:0.05 0.05 0.05 0.05 0.1 0.1 0.1 0.1 0.1 0.1 0.1 0.1 (good)
performance:0 0 0.05 0.05 0.05 0.15 0.15 0.15 0.15 0.1 0.05 0.1 (best)
15 2 15 15 15 15 15 2 15 15 15 15 15 2 15 15 15 15 15 2 2 2 2 2 2 2 2 2 2 2 2 2 2 2 2 2 2 2 2 2
0.15 0.15 0.15 0.15 0.15 0.15 0.15 0.15