Resetting simulator
Start State: [ Pos=1 | Car=SsKqw | Driver=sp | Tire=ALL_TERRAIN | Pressure=100% | Fuel=50 ]

A7:co:MZe: 804 0.39069044273828696
A4:performance: 970 0.4420969548360689
A4:low-profile: 804 0.38715292712819066
A1: 999 0.4505681293824579
A7:co:kTHBe: 917 0.42607060917964207
A2:MvC: 906 0.42319217909714707
A3:MZe: 963 0.44051298582383286
A7:MvC:MZe: 1058 0.46578293224005696
A2:co: 852 0.4044188846196839
A3:kTHBe: 983 0.44599094805771017
A7:MvC:O: 1122 0.4814205320600657
A7:MvC:kTHBe: 985 0.4469389933675202
A7:co:O: 893 0.4188809294652329
A3:O: 946 0.43546186161480865
13202
A7:MvC:O
Heuristic 1 used.
Step 0: performing A1
	Sampled move distance=SLIP
	Next State: [ Pos=1 | Car=SsKqw | Driver=sp | Tire=ALL_TERRAIN | Pressure=100% | Fuel=43 ]

A4:low-profile: 974 0.3148292682933117
A7:co:O: 1210 0.37261792780386344
A7:co:MZe: 1050 0.33546193375246736
A3:O: 1147 0.35916525951884937
A7:MvC:kTHBe: 1333 0.3967985148086918
A7:co:kTHBe: 1346 0.3992496628716613
A2:co: 1129 0.3548687300043579
A2:MvC: 1270 0.3850019451219853
A5:7: 1156 0.36137197733205356
A7:MvC:MZe: 1194 0.36959600682769095
A4:performance: 881 0.2853660386831874
A3:MZe: 1279 0.3866118792039472
A3:kTHBe: 1260 0.38331794849133705
A7:MvC:O: 1289 0.38886363818179537
A1: 1132 0.35589435963377347
17650
A7:co:kTHBe
Heuristic 1 used.
Step 7: performing A1
	Sampled move distance=SLIP
	Next State: [ Pos=1 | Car=SsKqw | Driver=sp | Tire=ALL_TERRAIN | Pressure=100% | Fuel=36 ]

A2:co: 1589 0.2844159054018593
A2:MvC: 1429 0.2603303098865739
A7:co:MZe: 1454 0.26400527567416404
A7:MvC:MZe: 1688 0.2978172753736305
A7:MvC:kTHBe: 1416 0.25797416905461024
A7:co:O: 1620 0.2889193541388573
A3:O: 1541 0.27765204750613887
A4:low-profile: 1286 0.23421157420055888
A7:co:kTHBe: 1658 0.29401682570719556
A7:MvC:O: 1446 0.26283162526008325
A1: 1513 0.2732883983565448
A3:MZe: 1623 0.28929605399172964
A3:kTHBe: 1585 0.2841167223942758
A4:performance: 1350 0.24628617293804922
A5:14: 1552 0.2791010175669243
22750
A7:MvC:MZe
Heuristic 1 used.
Step 14: performing A1
	Sampled move distance=SLIP
	Next State: [ Pos=1 | Car=SsKqw | Driver=sp | Tire=ALL_TERRAIN | Pressure=100% | Fuel=29 ]

A7:co:O: 2151 0.18414840419790873
A7:MvC:O: 2275 0.19498624422815677
A1: 1706 0.13584967906392967
A3:MZe: 2076 0.17715984875271812
A3:kTHBe: 2405 0.20539351708635914
A2:co: 1942 0.16357139372934343
A4:low-profile: 1825 0.15042102945049346
A7:MvC:kTHBe: 2378 0.2032515671951388
A3:O: 2134 0.18246795187255344
A2:MvC: 2084 0.17787583235171223
A7:co:MZe: 2372 0.2029271454750367
A4:performance: 1919 0.16094588758179285
A5:21: 1894 0.1592098595956027
A7:MvC:MZe: 2209 0.1893448908271465
A7:co:kTHBe: 2379 0.20344473601974003
31749
A3:kTHBe
Heuristic 1 used.
Step 21: performing A1
	Sampled move distance=SLIP
	Next State: [ Pos=1 | Car=SsKqw | Driver=sp | Tire=ALL_TERRAIN | Pressure=100% | Fuel=22 ]

A7:co:O: 4101 0.095147735858216
A5:28: 3308 0.06192078037853715
A7:co:MZe: 3891 0.08731515443592895
A7:co:kTHBe: 4377 0.10447949538069103
A7:MvC:MZe: 4202 0.09862854864188585
A2:MvC: 4037 0.09281009042204243
A3:O: 4022 0.09225820931461351
A4:low-profile: 3549 0.07321737092185587
A1: 2912 0.04053072044111508
A3:MZe: 3752 0.08179608879395212
A4:performance: 3561 0.07371758911250725
A7:MvC:O: 4047 0.09317042010267274
A2:co: 4020 0.0921641933800147
A3:kTHBe: 3814 0.08429178561270088
A7:MvC:kTHBe: 4044 0.09308570510880354
57637
A7:co:kTHBe
Heuristic 1 used.
Step 28: performing A1
	Sampled move distance=SLIP
	Next State: [ Pos=1 | Car=SsKqw | Driver=sp | Tire=ALL_TERRAIN | Pressure=100% | Fuel=15 ]

A7:MvC:O: 74489 0.0
A5:35: 74489 0.0
A4:performance: 74489 0.0
A7:MvC:MZe: 74489 0.0
A2:MvC: 74489 0.0
A7:co:kTHBe: 74489 0.0
A3:MZe: 74489 0.0
A7:MvC:kTHBe: 74489 0.0
A3:kTHBe: 74489 0.0
A7:co:O: 74489 0.0
A7:co:MZe: 74489 0.0
A1: 15877837 0.07875701205396
A2:co: 74489 0.0
A4:low-profile: 74489 0.0
A3:O: 74489 0.0
16920683
A1
Step 35: performing A1
	Sampled move distance=SLIP
	Next State: [ Pos=1 | Car=SsKqw | Driver=sp | Tire=ALL_TERRAIN | Pressure=100% | Fuel=8 ]

Max time steps exceeded: 42 > 36
Writing steps to output file
Didn't solved.
