Resetting simulator
Start State: [ Pos=1 | Car=bDBBp | Driver=wao | Tire=ALL_TERRAIN | Pressure=100% | Fuel=50 ]

A7:Lo:ZOu: 72 0.330674159775848
A7:Lf:ZUmAO: 91 0.5477478779479285
A7:Lf:ZOu: 81 0.4458652236573288
A7:TGR:ZUmAO: 83 0.4633388220676739
A2:Lo: 78 0.41824454555852686
A6:50%: 88 0.5094067239695242
A3:GzB: 93 0.5642187770264024
A3:ZOu: 85 0.4826717096420527
A7:TGR:ZOu: 83 0.4604364865608787
A1: 111 0.7041611690826077
A4:low-profile: 92 0.5485142188630272
A7:XV:ZUmAO: 84 0.48237614707364834
A7:Lf:p: 80 0.43687867864199414
A2:XV: 85 0.49337922872319423
A7:XV:GzB: 86 0.4994943444641026
A7:XV:ZOu: 87 0.503247663241484
A2:Lf: 82 0.4575303334619801
A6:75%: 87 0.5000975189769692
A7:Lo:GzB: 80 0.42974735974336864
A4:performance: 73 0.35680657070830146
A7:Lo:p: 77 0.40072264131234625
A3:ZUmAO: 82 0.4624657368340295
A7:Lf:GzB: 84 0.47818866958308576
A2:TGR: 89 0.5200209676288092
A7:TGR:p: 89 0.5261756928422776
A7:XV:p: 86 0.5014088818454098
A3:p: 84 0.48411856897746813
A7:Lo:ZUmAO: 83 0.47167879082544084
A4:mud: 80 0.43976890152962983
A7:TGR:GzB: 91 0.5436214323338983
2546
A1
Step 0: performing A1
	Sampled move distance=SLIP
	Next State: [ Pos=1 | Car=bDBBp | Driver=wao | Tire=ALL_TERRAIN | Pressure=100% | Fuel=42 ]

A7:XV:ZUmAO: 83 0.47540649556724085
A7:Lo:p: 84 0.48376070461726917
A6:75%: 102 0.6345715306202334
A4:low-profile: 81 0.45076218530653234
A2:XV: 79 0.42976704500863233
A3:GzB: 85 0.48508080024089384
A3:p: 91 0.5511327996128262
A7:XV:p: 87 0.5043470848124741
A7:Lf:p: 78 0.42011301751182645
A1: 103 0.6488562403458985
A2:Lo: 85 0.48664442483843434
A3:ZOu: 84 0.4755936352471596
A3:ZUmAO: 87 0.507700478908016
A7:Lf:ZUmAO: 76 0.3940857892168797
A7:TGR:ZOu: 84 0.47703385136985593
A2:Lf: 84 0.47813649188638213
A7:TGR:GzB: 87 0.5113374908068353
A6:50%: 87 0.5083290907983539
A4:mud: 79 0.43144744189880874
A7:Lf:ZOu: 81 0.45013730404260627
A2:TGR: 96 0.5909044107288522
A4:performance: 75 0.36940126516532695
A7:TGR:ZUmAO: 87 0.5114818930571234
A5:8: 89 0.5207789867443152
A7:Lo:ZOu: 82 0.460672139986875
A7:XV:ZOu: 90 0.5407176783914092
A7:Lo:ZUmAO: 81 0.45045435789811145
A7:XV:GzB: 94 0.5783356294179616
A7:Lf:GzB: 81 0.4519754176596804
A7:Lo:GzB: 78 0.4205068860653095
A7:TGR:p: 80 0.4357224107280775
2640
A1
Step 2: performing A1
	Sampled move distance=5
	Next State: [ Pos=6 | Car=bDBBp | Driver=wao | Tire=ALL_TERRAIN | Pressure=100% | Fuel=34 ]

A2:XV: 80 0.554214541716038
A7:Lf:ZOu: 72 0.4672941007136755
A3:ZUmAO: 83 0.5909775053218388
A6:50%: 79 0.5470327229140127
A7:XV:GzB: 79 0.5465955328816323
A7:TGR:GzB: 69 0.4211627015803675
A3:ZOu: 70 0.4366465379563828
A4:low-profile: 73 0.4783407753845536
A7:Lo:ZOu: 68 0.4150413833385947
A4:performance: 60 0.281247042137797
A7:Lo:p: 66 0.38069677483492564
A2:Lf: 80 0.5679597999474122
A7:Lo:ZUmAO: 83 0.5946661855654041
A6:75%: 77 0.5279870284522051
A3:GzB: 84 0.6060742363283753
A7:Lf:ZUmAO: 73 0.46989648505889037
A7:Lf:GzB: 69 0.42613137585455935
A1: 75 0.5062372234055342
A7:Lo:GzB: 74 0.49102559240148247
A7:XV:ZUmAO: 89 0.6557356188779951
A7:TGR:p: 76 0.5222226338821068
A7:TGR:ZOu: 75 0.5090616426913582
A7:TGR:ZUmAO: 75 0.5036717210161014
A2:TGR: 79 0.5514180757805759
A3:p: 72 0.46820369495512437
A2:Lo: 71 0.4438386255723274
A5:16: 81 0.5774346040804549
A7:XV:ZOu: 90 0.6687724291246417
A7:Lf:p: 66 0.38327420556039254
A4:mud: 66 0.3898731402715734
A7:XV:p: 77 0.5189198299191707
2331
A7:XV:ZOu
Heuristic 1 used.
Step 3: performing A1
	Sampled move distance=5
	Next State: [ Pos=11 | Car=bDBBp | Driver=wao | Tire=ALL_TERRAIN | Pressure=100% | Fuel=24 ]

A7:TGR:GzB: 72 0.46900185917361864
A7:XV:ZOu: 84 0.6172887953631735
A7:Lo:p: 69 0.4263011252846336
A2:XV: 75 0.513051810985084
A7:Lo:ZUmAO: 88 0.6564200188994657
A7:XV:ZUmAO: 87 0.6395245193183577
A2:Lo: 73 0.48688333931592687
A4:low-profile: 75 0.5152409278634448
A5:26: 94 0.7115134153275038
A7:TGR:ZUmAO: 76 0.527632207496172
A3:GzB: 80 0.5655600987366465
A7:XV:GzB: 87 0.644093498068127
A6:75%: 85 0.6285241719236578
A7:Lf:ZUmAO: 87 0.6475242579416944
A4:performance: 61 0.3007470299861869
A2:TGR: 85 0.6241642509363255
A3:ZUmAO: 95 0.713437949434385
A7:TGR:ZOu: 84 0.6161684079316179
A1: 90 0.6623374588702217
A7:Lf:ZOu: 76 0.5288981392050984
A2:Lf: 81 0.5850695656469973
A3:ZOu: 89 0.6544953977078095
A7:XV:p: 74 0.4978691113532709
A3:p: 82 0.5869054601997172
A7:Lo:ZOu: 71 0.4588705191488989
A6:50%: 81 0.5781591727912241
A4:mud: 69 0.4374487612895168
A7:Lf:p: 74 0.4982160142914788
A7:Lo:GzB: 62 0.32773641687035915
A7:Lf:GzB: 80 0.5652898472878799
A7:TGR:p: 80 0.5616002801916797
2466
A3:ZUmAO
Heuristic 1 used.
Step 4: performing A1
	Sampled move distance=3
	Next State: [ Pos=14 | Car=bDBBp | Driver=wao | Tire=ALL_TERRAIN | Pressure=100% | Fuel=18 ]

A7:Lf:ZOu: 73 0.5492873588635083
A7:TGR:GzB: 84 0.6793058766144157
A4:low-profile: 65 0.43704054480819293
A7:Lf:GzB: 68 0.48471328487608245
A7:Lo:GzB: 60 0.36894578378041637
A7:TGR:p: 83 0.6584657214809924
A7:Lo:ZOu: 68 0.4885706007683885
A1: 112 0.9129077531102707
A7:TGR:ZUmAO: 80 0.6335704527483373
A2:Lf: 89 0.7337137936767045
A7:XV:ZOu: 74 0.5646288667180946
A6:50%: 70 0.5094522336233748
A7:Lo:ZUmAO: 84 0.6753096096152081
A7:XV:ZUmAO: 79 0.6287548186269614
A2:TGR: 78 0.6049238811460251
A4:performance: 54 0.24157093406211724
A4:mud: 68 0.48316717358657035
A7:XV:p: 91 0.7501814965681576
A2:XV: 90 0.7393228657095362
A7:Lf:p: 85 0.6820012482664747
A5:32: 96 0.796282798710953
A7:Lf:ZUmAO: 87 0.7001922227977047
A3:GzB: 84 0.6735876124373059
A2:Lo: 75 0.5841783634684233
A7:XV:GzB: 78 0.6136126334869478
A7:TGR:ZOu: 71 0.5281685820404834
A3:ZOu: 78 0.6096023183928196
A6:75%: 82 0.6474154448834147
A7:Lo:p: 77 0.6029447869300666
A3:p: 92 0.7582389878590928
A3:ZUmAO: 89 0.7212758907400879
2464
A1
Step 5: performing A1
	Sampled move distance=0
	Next State: [ Pos=14 | Car=bDBBp | Driver=wao | Tire=ALL_TERRAIN | Pressure=100% | Fuel=12 ]

A7:XV:ZOu: 84 0.5850771567941998
A7:Lo:GzB: 68 0.3914104462641625
A4:mud: 74 0.46506874176770774
A2:Lf: 78 0.5129642980302302
A2:XV: 96 0.6978547197789995
A2:TGR: 101 0.7390525601383305
A6:75%: 87 0.6113094131705177
A7:TGR:ZUmAO: 84 0.5871923735115271
A7:Lf:ZOu: 84 0.584633168186428
A3:GzB: 85 0.5874473904226774
A3:p: 103 0.7494139083661906
A6:50%: 91 0.6450849874180397
A7:TGR:p: 80 0.5388941966781979
A7:Lf:GzB: 93 0.6609707598512352
A7:Lf:p: 72 0.4442640156368299
A3:ZUmAO: 85 0.5970274658646619
A4:low-profile: 85 0.58522832332455
A7:Lo:ZUmAO: 86 0.6068093471358238
A7:XV:GzB: 98 0.7054321330766038
A2:Lo: 71 0.421889521672992
A3:ZOu: 78 0.5114908664613859
A7:TGR:GzB: 99 0.7134732467218569
A7:Lo:p: 75 0.48324707078273266
A7:Lf:ZUmAO: 85 0.5920349253310807
A7:TGR:ZOu: 81 0.5559584672165462
A5:38: 82 0.5549099139261187
A4:performance: 70 0.4064409107322239
A7:XV:ZUmAO: 98 0.715271886335657
A1: 108 0.7845952623348111
A7:XV:p: 96 0.693250062668465
A7:Lo:ZOu: 75 0.48522271572951525
2652
A1
Step 6: performing A1
	Sampled move distance=3
	Next State: [ Pos=17 | Car=bDBBp | Driver=wao | Tire=ALL_TERRAIN | Pressure=100% | Fuel=6 ]

A2:Lf: 103 0.7925695434064489
A7:TGR:ZOu: 95 0.7298851224062567
A2:Lo: 80 0.5809064223662788
A7:Lo:ZOu: 68 0.43297496694027454
A7:Lf:ZUmAO: 87 0.6585638040578851
A7:XV:ZUmAO: 89 0.6838867407930384
A7:Lo:ZUmAO: 97 0.7545234879859304
A7:Lo:GzB: 69 0.44976886005385686
A7:XV:GzB: 93 0.7122060996069951
A4:low-profile: 101 0.7785630988626411
A7:TGR:GzB: 108 0.8303700447230362
A7:Lo:p: 76 0.5315828400368116
A5:44: 81 0.6010771913122106
A3:ZOu: 115 0.8880858626067426
A2:XV: 94 0.7297337431981991
A3:ZUmAO: 83 0.6241204428999665
A3:GzB: 86 0.651801387300578
A6:75%: 94 0.717213132528945
A6:50%: 92 0.6972594545262585
A7:Lf:GzB: 78 0.5656515547922462
A7:Lf:p: 69 0.4552915170781706
A7:Lf:ZOu: 85 0.6426058281600606
A4:mud: 75 0.5320300583291426
A7:XV:ZOu: 98 0.7566993879162944
A1: 153 1.0819943156449428
A4:performance: 62 0.3441905133183185
A2:TGR: 90 0.6934557315465698
A3:p: 102 0.7885109029235927
A7:XV:p: 77 0.5512166173259041
A7:TGR:p: 78 0.5656489260507226
A7:TGR:ZUmAO: 88 0.6727795545823383
2766
A1
Step 7: performing A1
	Sampled move distance=5
	Next State: [ Pos=22 | Car=bDBBp | Driver=wao | Tire=ALL_TERRAIN | Pressure=100% | Fuel=0 ]

A7:Lo:ZUmAO: 97 1.0942941300382751
A4:performance: 62 0.6859417913723701
A2:XV: 84 0.9817662382461821
A3:ZOu: 145 1.3985020371520958
A7:TGR:GzB: 90 1.0309813568382686
A7:TGR:ZOu: 56 0.5882747029612965
A2:TGR: 72 0.8343234403811297
A6:75%: 106 1.1661780549163319
A7:Lf:ZOu: 92 1.0493729182582003
A6:50%: 107 1.185351945090268
A7:Lf:GzB: 180 1.545340776415617
A7:TGR:ZUmAO: 175 1.522354761964699
A2:Lf: 177 1.5351111951117762
A7:XV:p: 98 1.113770254741994
A7:Lo:ZOu: 92 1.0542320272916275
A7:TGR:p: 123 1.287946199081764
A3:p: 131 1.3383869890820206
A4:mud: 76 0.8915606287528561
A3:GzB: 111 1.2088153033736861
A7:XV:GzB: 164 1.4858406201369843
A7:Lo:GzB: 91 1.0443478526602736
A5:50: 138 1.374925530932752
A3:ZUmAO: 103 1.1493290065361106
A7:Lf:ZUmAO: 102 1.1525805211568607
A7:XV:ZUmAO: 112 1.224341193044823
A7:Lo:p: 77 0.8970373489184478
A7:Lf:p: 135 1.359592608394184
A4:low-profile: 143 1.398703251350239
A7:XV:ZOu: 117 1.2531537978878233
A2:Lo: 102 1.15070933284874
3358
A7:Lf:GzB
Step 8: performing A7
	Next State: [ Pos=22 | Car=Lf | Driver=GzB | Tire=ALL_TERRAIN | Pressure=100% | Fuel=50 ]

A6:50%: 162 1.3046256770111213
A3:p: 129 1.1524231431242506
A3:ZUmAO: 118 1.0925491017958535
A3:ZOu: 122 1.1199360024140823
A4:mud: 113 1.06495520167014
A7:Lo:ZOu: 112 1.0525868188852778
A7:Lo:p: 70 0.6491592255246628
A7:Lo:wao: 115 1.0756792927865337
A7:TGR:ZUmAO: 182 1.3796313501803785
A7:bDBBp:p: 186 1.3971151413781677
A7:TGR:wao: 165 1.3260267437166247
A6:75%: 88 0.8525959921076847
A7:TGR:ZOu: 112 1.0583910701439778
A4:low-profile: 81 0.775107231578198
A2:Lo: 85 0.817666719232265
A4:performance: 83 0.808485099371108
A7:bDBBp:ZOu: 178 1.3722304811349673
A2:TGR: 221 1.4958869581294458
A1: 307 1.658347728145867
A3:wao: 124 1.1316067556868257
A7:XV:p: 196 1.422584875351016
A7:Lo:ZUmAO: 162 1.3132058632848471
A7:TGR:p: 114 1.0660759937036715
3225
A1
Step 9: performing A1
	Sampled move distance=3
	Next State: [ Pos=25 | Car=Lf | Driver=GzB | Tire=ALL_TERRAIN | Pressure=100% | Fuel=42 ]

A4:low-profile: 36 2.859911302766988
A7:TGR:p: 152 4.143258501351745
A7:bDBBp:ZOu: 56 3.3360091632833035
A7:Lo:p: 18 1.7981538173150176
A7:Lo:ZOu: 60 3.386579693160303
A7:TGR:ZUmAO: 46 3.0979163799466596
A2:TGR: 76 3.612458236421338
A4:mud: 35 2.738391093978018
A7:XV:p: 21 2.029711963454079
A3:p: 22 2.1568352139984266
A3:wao: 42 3.003805577504496
A6:75%: 40 2.9897118877991375
A5:8: 110 3.9474089769382217
A7:bDBBp:p: 38 2.881409174260613
A7:Lo:ZUmAO: 78 3.656287765104373
A1: 2918 8.617071908442467
A3:ZUmAO: 76 3.6304729312145017
A3:ZOu: 38 2.883935364807254
A4:performance: 36 2.7853847227103894
A7:TGR:ZOu: 73 3.594579059158339
A2:Lo: 32 2.695823899564728
A7:Lo:wao: 36 2.7905095679428142
A7:TGR:wao: 58 3.3884959449114107
A6:50%: 51 3.2698440632052885
4148
A1
Step 10: performing A1
	Sampled move distance=-3
	Next State: [ Pos=22 | Car=Lf | Driver=GzB | Tire=ALL_TERRAIN | Pressure=100% | Fuel=34 ]

A4:low-profile: 79 0.7591152096920829
A7:TGR:ZUmAO: 239 1.551910644568772
A3:p: 131 1.1809207977287524
A5:16: 104 0.9999996554259727
A7:Lo:ZUmAO: 126 1.1570824540964615
A7:Lo:ZOu: 94 0.9150914113094657
A6:75%: 131 1.184939371375259
A3:wao: 165 1.3321333882281274
A3:ZUmAO: 96 0.9382734648281718
A2:Lo: 109 1.0470182695827004
A6:50%: 106 1.1696252723082208
A7:Lo:p: 135 1.1998025615389087
A1: 600 1.9370234312687713
A7:TGR:wao: 130 1.1741104037231784
A7:TGR:p: 103 0.9897377799360322
A2:TGR: 121 1.1245416061842022
A4:performance: 62 0.5376720078906284
A7:XV:p: 132 1.1857716075323772
A7:TGR:ZOu: 128 1.1681438576354695
A3:ZOu: 149 1.2675605441327458
A4:mud: 62 0.540323798003136
A7:bDBBp:p: 195 1.432295161217733
A7:Lo:wao: 82 0.8109186262001026
A7:bDBBp:ZOu: 194 1.433307692575203
3473
A1
Step 11: performing A1
	Sampled move distance=SLIP
	Next State: [ Pos=22 | Car=Lf | Driver=GzB | Tire=ALL_TERRAIN | Pressure=100% | Fuel=26 ]

A7:TGR:wao: 112 1.0427697421556772
A3:p: 138 1.2008079527435593
A7:bDBBp:ZOu: 146 1.2463570536464177
A3:ZOu: 73 0.6826366605900125
A3:ZUmAO: 180 1.3784526288687744
A7:Lo:p: 94 0.9165848827862031
A6:50%: 96 0.927624354846238
A7:TGR:ZUmAO: 239 1.535546238302786
A7:bDBBp:p: 168 1.334406565626579
A7:TGR:p: 125 1.139053941219036
A7:TGR:ZOu: 114 1.0703570565755691
A7:Lo:ZUmAO: 145 1.233293492930117
A4:performance: 49 0.26091971759173876
A3:wao: 120 1.108743182805647
A6:75%: 154 1.2743593123243624
A2:Lo: 97 0.9520393899662315
A4:mud: 79 0.7649234236440252
A4:low-profile: 97 0.9416474049334087
A5:24: 116 1.0838625886167326
A1: 441 1.8112390403954517
A7:XV:p: 119 1.0979205500291798
A7:Lo:wao: 132 1.1730317574902664
A2:TGR: 145 1.2352331870885451
A7:Lo:ZOu: 86 0.8285087613542474
3265
A1
Step 13: performing A1
	Sampled move distance=SLIP
	Next State: [ Pos=22 | Car=Lf | Driver=GzB | Tire=ALL_TERRAIN | Pressure=100% | Fuel=18 ]

A3:p: 136 1.1634456867680754
A3:wao: 169 1.3089365408501736
A7:Lo:wao: 98 0.9196415586704598
A2:TGR: 84 0.7890602071853875
A3:ZOu: 116 1.0478825443185296
A1: 298 1.6141519258190502
A7:TGR:wao: 169 1.3041146860757507
A7:TGR:p: 171 1.3101359958636742
A7:XV:p: 151 1.2304278791011944
A7:Lo:ZUmAO: 183 1.3573853143381802
A7:TGR:ZUmAO: 223 1.4625456376747434
A7:Lo:p: 99 0.9184709337495599
A7:bDBBp:p: 180 1.3412317342645026
A6:50%: 216 1.4478827297417662
A7:bDBBp:ZOu: 175 1.3270188001238181
A6:75%: 90 0.8408459757159935
A4:low-profile: 101 0.9400306393765752
A2:Lo: 116 1.0507326803142056
A4:performance: 109 0.9967310999288221
A4:mud: 64 0.5307113120515956
A3:ZUmAO: 135 1.1588047518852986
A7:Lo:ZOu: 93 0.8782340567193926
A5:32: 94 0.8783856111808486
A7:TGR:ZOu: 108 0.9948738370203819
3378
A1
Step 15: performing A1
	Sampled move distance=1
	Next State: [ Pos=23 | Car=Lf | Driver=GzB | Tire=ALL_TERRAIN | Pressure=100% | Fuel=10 ]

A7:Lo:p: 87 1.164224864487759
A7:Lo:ZOu: 71 0.9721693688514712
A4:low-profile: 48 0.5491275263208169
A4:performance: 81 1.1027829629880153
A7:TGR:wao: 278 1.938907532511257
A3:ZUmAO: 125 1.4533904449702206
A4:mud: 59 0.7953398381449217
A7:TGR:ZUmAO: 163 1.6419478600752098
A2:Lo: 142 1.5514454867713294
A7:bDBBp:ZOu: 110 1.3609820324101987
A7:TGR:p: 148 1.6206468809063774
A6:50%: 205 1.7736006392785095
A5:40: 64 0.874577798516058
A6:75%: 185 1.72094148621468
A3:wao: 162 1.6296233444851969
A7:bDBBp:p: 149 1.5857189574821766
A7:XV:p: 207 1.778521533440532
A2:TGR: 89 1.1896685842913426
A3:p: 114 1.3819574621220572
A7:Lo:ZUmAO: 107 1.338925898728806
A3:ZOu: 150 1.5897625582208308
A7:TGR:ZOu: 172 1.6777034642615065
A7:Lo:wao: 89 1.185998292353995
A1: 845 2.3581755804318276
3850
A1
Step 16: performing A1
	Sampled move distance=-1
	Next State: [ Pos=22 | Car=Lf | Driver=GzB | Tire=ALL_TERRAIN | Pressure=100% | Fuel=2 ]

A6:50%: 139 1.2815039250413582
A7:XV:ZUmAO: 141 1.2937794707867813
A4:low-profile: 118 1.1674308637213715
A7:bDBBp:wao: 121 1.1768289033725805
A7:TGR:wao: 120 1.1756277155392032
A2:XV: 125 1.1967752428412872
A7:XV:wao: 186 1.4691113978363919
A7:XV:p: 167 1.401045876411989
A3:p: 138 1.2682203274692765
A3:wao: 104 1.0604793176113099
A7:bDBBp:ZOu: 110 1.1070600939961035
A7:Lo:ZUmAO: 116 1.141616060752368
A5:48: 127 1.2065924759258035
A2:Lo: 87 0.9124983325759296
A2:TGR: 128 1.2165350163982978
A7:XV:ZOu: 162 1.3767945615788748
A7:TGR:ZOu: 89 0.9383218106146178
A4:performance: 65 0.6456141054176585
A7:Lo:p: 49 0.3367421746059233
A3:ZUmAO: 153 1.3407486953418652
A7:bDBBp:p: 136 1.2680528723300633
A6:75%: 90 0.9499887418007832
A4:mud: 81 0.8442931060794145
A7:TGR:p: 117 1.154147983214755
A3:ZOu: 98 1.0167743343928675
A7:bDBBp:ZUmAO: 87 0.9096657291678953
A7:Lo:ZOu: 121 1.1786980490671133
A7:TGR:ZUmAO: 177 1.4365223498773614
A2:bDBBp: 137 1.2695589458260081
A7:Lo:wao: 80 0.8346676546415074
3569
A7:XV:wao
Step 17: performing A7
	Next State: [ Pos=22 | Car=XV | Driver=wao | Tire=ALL_TERRAIN | Pressure=100% | Fuel=50 ]

A7:bDBBp:ZOu: 100 1.1312873711562725
A6:75%: 143 1.399095541780322
A7:Lo:GzB: 95 1.0978044987692397
A7:bDBBp:ZUmAO: 94 1.084573768444206
A7:TGR:ZUmAO: 122 1.291110272889851
A7:Lf:ZUmAO: 57 0.6198902066589236
A7:TGR:ZOu: 128 1.3309888461274648
A2:Lf: 101 1.1520400844202545
A7:Lf:GzB: 112 1.2309447467358514
A7:Lf:p: 89 1.033664881755785
A3:p: 128 1.3351799252650054
A7:bDBBp:GzB: 140 1.3954177043843776
A3:GzB: 132 1.3439244848463825
A2:bDBBp: 115 1.251573229749476
A4:mud: 74 0.8791297000592199
A7:TGR:GzB: 79 0.9419673572473539
A2:Lo: 68 0.7872028244896023
A4:low-profile: 110 1.2195915778225148
A6:50%: 114 1.2348027389522658
A7:bDBBp:p: 124 1.3018677579003506
A7:TGR:p: 120 1.2842524665047443
A7:Lf:ZOu: 145 1.4173056960845123
A3:ZOu: 112 1.2356679243484354
A2:TGR: 101 1.1515580177157456
A7:Lo:p: 85 1.008429040214634
A7:Lo:ZUmAO: 140 1.3976964879859812
A7:Lo:ZOu: 81 0.958229627500895
A1: 617 2.112247923171632
A4:performance: 50 0.46314269509283074
A3:ZUmAO: 160 1.4856679866693854
3736
A1
Step 18: performing A1
	Sampled move distance=-1
	Next State: [ Pos=21 | Car=XV | Driver=wao | Tire=ALL_TERRAIN | Pressure=100% | Fuel=43 ]

A4:low-profile: 126 1.1514378106242094
A5:7: 98 0.9681288310329567
A6:50%: 128 1.1725796598938814
A7:Lo:ZOu: 84 0.8321133373232864
A2:Lo: 79 0.7790522764437317
A7:TGR:GzB: 123 1.1346715423329126
A7:Lo:ZUmAO: 79 0.7732088583471641
A4:performance: 101 0.9838149877313591
A7:bDBBp:GzB: 129 1.1774003137638354
A7:TGR:p: 111 1.125774601259555
A7:Lf:ZUmAO: 89 0.8769280209760401
A7:Lo:GzB: 86 0.8562022832316414
A7:TGR:ZUmAO: 139 1.220821163255827
A7:bDBBp:ZUmAO: 143 1.2425131360682071
A2:bDBBp: 186 1.416666521657464
A7:TGR:ZOu: 91 0.9016061254919198
A3:p: 114 1.0846057022667777
A7:Lf:p: 111 1.066887420251168
A3:GzB: 131 1.1834266394540471
A1: 185 1.4056795159775657
A3:ZUmAO: 113 1.0789902527950748
A7:Lo:p: 102 0.9946079138506156
A6:75%: 120 1.1223846787727392
A2:Lf: 129 1.1769734064169826
A7:bDBBp:p: 133 1.1911793174825833
A7:bDBBp:ZOu: 141 1.230623088816285
A7:Lf:GzB: 99 0.9715033043415873
A3:ZOu: 125 1.1478895864620868
A7:Lf:ZOu: 90 0.8972953813158027
A2:TGR: 121 1.1313913587623339
A4:mud: 66 0.6023497222267516
3572
A2:bDBBp
Step 19: performing A2
	Next State: [ Pos=21 | Car=bDBBp | Driver=wao | Tire=ALL_TERRAIN | Pressure=100% | Fuel=50 ]

A2:XV: 67 1.3007093034591948
A4:performance: 41 0.741026541511144
A7:XV:GzB: 95 1.616506249864348
A7:XV:p: 40 0.7429197370735887
A7:TGR:ZUmAO: 47 0.9288769234968346
A7:TGR:p: 80 1.469571088194771
A7:XV:ZOu: 66 1.2799857839465636
A6:75%: 70 1.3318220447816518
A6:50%: 69 1.3389609569838714
A7:TGR:GzB: 83 1.5052299294103904
A3:ZOu: 62 1.2174642283600021
A7:TGR:ZOu: 38 0.6792670874970788
A7:Lf:p: 68 1.3142744423617627
A7:Lo:GzB: 35 0.5477846131633568
A4:low-profile: 69 1.321668185510059
A1: 2317 5.447969299832017
A7:XV:ZUmAO: 57 1.14486119609384
A7:Lo:ZUmAO: 78 1.4501368449718126
A3:p: 61 1.1934162857875725
A7:Lo:ZOu: 56 1.1317591083965464
A3:ZUmAO: 86 1.5210959445027163
A7:Lo:p: 40 0.7417632447438984
A2:Lo: 41 0.7545197502691301
A4:mud: 46 0.9135453006307216
A7:Lf:ZUmAO: 82 1.480714340833192
A7:Lf:GzB: 43 0.8145473817831413
A7:Lf:ZOu: 38 0.6593389865606863
A3:GzB: 68 1.3086931872247474
A2:Lf: 67 1.302757827310622
A2:TGR: 47 0.9353623656817618
4057
A1
Step 20: performing A1
	Sampled move distance=3
	Next State: [ Pos=24 | Car=bDBBp | Driver=wao | Tire=ALL_TERRAIN | Pressure=100% | Fuel=44 ]

A6:75%: 9 5.957578081176929
A7:TGR:p: 4 3.480379129981901
A7:Lf:p: 3 1.695363281943476
A7:Lf:ZUmAO: 6 4.303718643954977
A7:Lo:ZOu: 2 0.20301485115850765
A2:Lf: 2 0.2649029272216578
A7:XV:GzB: 5 3.9136238007805018
A7:XV:ZUmAO: 3 1.6736307945122204
A7:XV:p: 3 1.999562029178982
A2:XV: 3 1.0354097610072859
A5:6: 2 0.02980256895200726
A4:low-profile: 2 0.4565216931881208
A2:Lo: 3 1.0425940513482062
A4:mud: 3 1.1496357619184334
A7:TGR:ZUmAO: 4 2.4743290912778386
A2:TGR: 11 5.7387082257001785
A3:GzB: 2 0.493701155483267
A7:Lo:GzB: 2 0.3042728569689247
A1: 7743 18.180330725718846
A7:TGR:GzB: 2 0.10660515250114515
A3:ZUmAO: 2 0.12387077444042048
A7:XV:ZOu: 5 3.504761704896803
A3:ZOu: 4 3.3026983217680725
A6:50%: 14 6.792425795570137
A7:Lf:ZOu: 2 0.3035626342287163
A3:p: 3 0.8383886102413207
A4:performance: 2 0.03672104972643366
A7:Lo:ZUmAO: 13 6.532179903504964
A7:Lf:GzB: 2 0.3445657211712226
A7:TGR:ZOu: 2 0.2870256377099287
A7:Lo:p: 6 3.6536905168637897
7869
A1
Step 21: performing A1
	Sampled move distance=3
	Next State: [ Pos=27 | Car=bDBBp | Driver=wao | Tire=ALL_TERRAIN | Pressure=100% | Fuel=34 ]

A7:Lf:ZOu: 10 9.578990956937673
A7:Lf:GzB: 1 0.6439292942025718
A7:TGR:ZOu: 4 4.847094546965876
A7:Lf:p: 1 0.4308550405306489
A3:ZUmAO: 3 4.208087368890889
A7:Lf:ZUmAO: 1 0.0
A7:XV:GzB: 3 3.975556214960117
A2:TGR: 1 2.2099164591290324E-5
A4:low-profile: 7 8.45071227579219
A2:XV: 7 7.596365397635648
A7:XV:ZOu: 1 2.9515750937234466E-6
A6:50%: 1 0.4527291262947851
A7:Lo:GzB: 1 0.00630701960234171
A7:TGR:p: 1 0.528393369739391
A7:TGR:GzB: 1 0.0
A7:XV:p: 9 8.615780422606552
A3:ZOu: 3 5.681430026729828
A2:Lo: 4 5.371042179213492
A4:performance: 4 7.308586574280258
A7:TGR:ZUmAO: 12 9.337111794486752
A4:mud: 2 3.553621744501568
A3:GzB: 6 7.410635022237577
A2:Lf: 9 8.85262527603195
A3:p: 1 0.40158491702190374
A7:XV:ZUmAO: 8 9.114570958751067
A7:Lo:p: 2 3.130210149781096
A7:Lo:ZUmAO: 26 10.936253454778194
A1: 22715 42.562628914430015
A7:Lo:ZOu: 1 0.0120942069432447
A6:75%: 1 0.6798923158407669
A5:16: 1 0.022449276115707417
22847
A1
Step 22: performing A1
	Sampled move distance=3
	Next State: [ Pos=29 | Car=bDBBp | Driver=wao | Tire=ALL_TERRAIN | Pressure=100% | Fuel=28 ]

Goal reached after 23 steps.
Writing steps to output file
Solved!
