Resetting simulator
Start State: [ Pos=1 | Car=Gyu | Driver=g | Tire=ALL_TERRAIN | Pressure=100% | Fuel=50 ]

0.9199999999999999
0.8464
0.7786880000000003
0.7163929599999999
0.6590815232000002
0.6063550013440002
0.5578466012364798
0.5132188731375615
0.4721613632865571
0.43438845422363226
0.3996373778857416
0.36766638765488313
0.3382530766424914
0.3111928305110929
0.286297404070206
0.2633936117445881
0.24232212280502097
0.22293635298061965
0.20510144474217107
0.18869332916279724
0.17359786282977296
0.15971003380339077
0.14693323109911915
0.13517857261119026
0.12436428680229561
0.11441514385811224
0.10526193234946213
0.0968409777615058
0.08909369954058555
0.08196620357733764
0.0754089072911519
0.06937619470785883
0.06382609913123005
0.058720011200732
0.054022410304673585
0.049700617480299414
0.04572456808187475
0.04206660263532491
0.03870127442449878
0.035605172470539515
0.03275675867289607
0.03013621797906474
0.027725320540739062
0.025507294897479937
0.023466711305681898
0.02158937440122699
0.01986222444912933
0.018273246493199835
0.016811386773742498
0.01546647583184324
0.014229157765296208
0.013090825144072227
0.012043559132546733
0.011080074401943918
0.010193668449787197
0.00937817497380422
0.008627920975900594
0.007937687297827623
0.007302672314002834
0.006718458528881754
0.006180981846570788
0.005686503298845125
0.00523158303493787
0.0048130563921429115
0.00442801188077091
0.004073770930309806
0.0037478692558856608
0.003448039715413742
0.0031721965381805717
0.002918420815126055
0.0026849471499161837
0.0024701513779223916
0.002272539267689666
0.00209073612627364
0.0019234772361720331
0.0017695990572779152
0.0016280311326966057
0.0014977886420801667
0.001377965550714677
0.001267728306656224
0.0011663100421248629
0.001073005238755087
9.8716481965333E-4
9.081916340818452E-4
8.35536303355866E-4
7.68693399086473E-4
7.07197927159342E-4
6.506220929871631E-4
5.985723255488296E-4
5.506865395048521E-4
5.066316163446771E-4
4.6610108703681874E-4
4.288130000738022E-4
3.9450796006690325E-4
3.629473232624747E-4
3.339115374014767E-4
3.071986144096428E-4
2.8262272525658716E-4
2.6001290723520754E-4
2.3921187465703042E-4
2.2007492468389955E-4
2.024689307091876E-4
1.8627141625238153E-4
1.7136970295261733E-4
1.576601267156974E-4
1.45047316578939E-4
1.3344353125255282E-4
1.2276804875277492E-4
1.1294660485283714E-4
1.0391087646510755E-4
9.559800634661997E-5
8.795016583995618E-5
8.091415257283074E-5
7.444102036657796E-5
6.84857387369675E-5
6.300687963722851E-5
5.796632926724499E-5
5.3329022925652225E-5
4.906270109117372E-5
4.513768500480353E-5
4.152667020385081E-5
3.820453658853751E-5
3.514817366045975E-5
3.233631976762297E-5
2.974941418720789E-5
2.7369461051307553E-5
2.517990416706084E-5
2.31655118341223E-5
2.1312270886753026E-5
1.960728921623911E-5
1.803870607908209E-5
1.6595609592329197E-5
1.5267960824516535E-5
1.4046523959976298E-5
1.2922802042680814E-5
1.188897787862686E-5
1.0937859649118309E-5
1.006283087612303E-5
9.257804407525327E-6
8.51718005456803E-6
7.835805650557859E-6
7.208941196878982E-6
6.632225902691857E-6
6.101647830547563E-6
5.613516004032704E-6
5.16443472342587E-6
4.751279945480746E-6
4.371177549700178E-6
4.021483345439947E-6
3.6997646777336968E-6
3.4037835039413267E-6
3.131480823981292E-6
2.8809623575654086E-6
2.650485368960176E-6
2.4384465397986332E-6
2.2433708153357657E-6
2.063901151316827E-6
1.8987890584298839E-6
1.746885933684439E-6
1.6071350597002265E-6
1.4785642541426114E-6
1.3602791142375281E-6
1.2514567853116887E-6
1.1513402426999164E-6
1.0592330230707603E-6
9.74494380301394E-7
8.965348303746623E-7
8.248120444420692E-7
7.588270811709208E-7
6.981209139667044E-7
6.422712406362052E-7
5.908895417405802E-7
5.436183787566051E-7
5.001289089534566E-7
4.601185956687459E-7
4.233091086547347E-7
3.894443789675961E-7
3.5828882793964567E-7
3.296257222729082E-7
3.032556641358042E-7
2.7899521093388557E-7
2.5667559455655464E-7
2.361415472051931E-7
2.1725022314456055E-7
1.9987020571932135E-7
1.8388058897755855E-7
1.6917014278305942E-7
1.5563653121830612E-7
1.4318560737081043E-7
1.3173075963379688E-7
1.2119229886309313E-7
1.1149691481193713E-7
1.025771609874937E-7
9.437098924536258E-8
Step 0: performing A2
	Next State: [ Pos=1 | Car=Q | Driver=g | Tire=ALL_TERRAIN | Pressure=100% | Fuel=50 ]

Step 1: performing A3
	Next State: [ Pos=1 | Car=Q | Driver=z | Tire=ALL_TERRAIN | Pressure=100% | Fuel=50 ]

Step 2: performing A4
	Next State: [ Pos=1 | Car=Q | Driver=z | Tire=MUD | Pressure=100% | Fuel=50 ]

Step 3: performing A1
	Sampled move distance=4
	Next State: [ Pos=5 | Car=Q | Driver=z | Tire=MUD | Pressure=100% | Fuel=44 ]

Step 4: performing A1
	Sampled move distance=-3
	Next State: [ Pos=2 | Car=Q | Driver=z | Tire=MUD | Pressure=100% | Fuel=40 ]

Step 5: performing A1
	Sampled move distance=4
	Next State: [ Pos=6 | Car=Q | Driver=z | Tire=MUD | Pressure=100% | Fuel=35 ]

Step 6: performing A1
	Sampled move distance=4
	Next State: [ Pos=10 | Car=Q | Driver=z | Tire=MUD | Pressure=100% | Fuel=29 ]

Step 7: performing A6
	Next State: [ Pos=10 | Car=Q | Driver=z | Tire=MUD | Pressure=50% | Fuel=29 ]

Step 8: performing A1
	Sampled move distance=4
	Next State: [ Pos=12 | Car=Q | Driver=z | Tire=MUD | Pressure=50% | Fuel=20 ]

Goal reached after 9 steps.
Writing steps to output file
